<?xml version="1.0" encoding="utf-8"?>
<!-- Generator: Adobe Illustrator 22.0.1, SVG Export Plug-In . SVG Version: 6.00 Build 0)  -->
<svg version="1.1" id="Camada_1" xmlns="http://www.w3.org/2000/svg" xmlns:xlink="http://www.w3.org/1999/xlink" x="0px" y="0px"
	 viewBox="0 0 482.8 269.3" style="enable-background:new 0 0 482.8 269.3;" xml:space="preserve">
<style type="text/css">
	.st0{fill:#E03636;}
	.st1{fill:#FFBD00;}
</style>
<title>aGenteS2</title>
<path d="M21.6,129.7c-0.5,0-0.8,0.3-0.9,0.9c-0.3,1.6-0.6,3.2-1,4.7c-0.3,1.1-0.6,1.4-1.8,1.4c-1.5,0-2.9,0-4.4-0.1
	c-1.1-0.1-1.4-0.4-1.2-1.6l0.5-4.4c0.2-1.6,0.6-3.2,1-4.7c0.6-2.3,1.2-4.6,1.6-6.9c0.3-2.2,0.8-4.4,1.1-6.6c0.1-0.6,0.3-1.2,0.5-1.8
	c1.1-3,1.9-6.1,2.3-9.3c0.1-0.6,0.2-1.2,0.4-1.8c0.2-0.7-0.3-1.7,0.5-2.1c0.5-0.3,1.3,0.2,1.9-0.2c1.1,0.2,2.3,0.1,3.4-0.1
	c1,0,2,0.5,3.1,0.1c0.4-0.2,0.9,0.4,1.1,0.9c1.3,4.8,2.1,9.7,3.3,14.6c0.6,3.4,1.5,6.7,2.5,10c0.7,1.7,0.9,3.5,1.5,5.2
	c0.6,2,1.3,3.9,2.2,5.8c0.6,1,0.3,1.4-0.9,1.9c-0.4,0.1-0.7,0.2-1.1,0.1c-1.3,0-2.7-0.2-4.1-0.3c-0.7-0.1-1.3-0.6-1.4-1.3
	c-0.2-1.1-0.5-2.2-0.8-3.4s-0.4-1.3-1.7-1.3h-1.5C25.6,129.6,23.6,129.7,21.6,129.7z M27.9,122.7c0.3,0,0.6-0.3,0.6-0.6
	c0-0.1,0-0.2,0-0.2c-0.5-1.2-0.8-2.5-0.9-3.8c-0.3-2.7-0.7-5.4-1.4-8.1c-0.1-0.7-0.3-1.5-0.6-2.2c0-0.1-0.2-0.3-0.3-0.3
	s-0.3,0.1-0.3,0.2c-0.1,0.2-0.2,0.5-0.2,0.7c-0.8,3.7-1.5,7.3-2.4,10.9c-0.4,1-0.5,2.1-0.4,3.1c1,0.4,1.9,0.1,2.7,0.2
	C25.9,122.8,26.9,122.8,27.9,122.7L27.9,122.7z"/>
<path d="M65.2,112.1c0.1,2.5,0.2,5,0.3,7.6c0,0.4,0,0.8-0.1,1.1c-0.6,2.4,0.2,4.7,0.4,7.1c0,0.5,0.4,0.8,0.9,0.9
	c1.1,0.2,2.3,0.3,3.4,0.2c0.6,0,0.8-0.4,0.8-0.9c0-1.3-0.1-2.6-0.4-3.9c-0.2-1.1-0.4-2.3-0.5-3.4c0-1-0.1-1-1.2-1.2
	c-0.6-0.1-1-0.3-1-1c0-1.6-0.1-3.2-0.1-4.8c0-0.6,0.2-0.9,0.8-0.9c2,0,4-0.2,6-0.5c0.5,0,0.9,0,1.4,0.1c0.6,0.1,0.8,0.3,1,1.1v0.5
	c0,3.3,0.2,6.6,0.6,9.9c0.2,1.6,0.1,3.2-0.3,4.8c-0.1,0.8,0,1.5,0.1,2.3c0.2,1.5,0.3,3.1,0.2,4.6c0,0.8-0.3,1.1-1.1,1.1
	c-1.9-0.1-3.8-0.2-5.7-0.2c-2.1,0-4.1,0.1-6.2,0.2c-1.2,0.2-2.5-0.4-3-1.6c-0.7-1.2-1.5-2.3-2.4-3.4c-0.3-0.4-0.5-1-0.5-1.5
	c-0.4-3-0.5-5.9-0.4-8.9c0.1-0.5,0.1-1.1,0-1.6c-0.3-2.1-0.5-4.1-0.4-6.2c0-1.6-0.1-3.2-0.3-4.8c-0.2-1.8-0.2-3.5-0.2-5.3
	c0-0.4,0.1-0.7,0.4-1c1.1-1.3,2.2-2.7,3.4-4c0.5-0.5,1.1-0.9,1.8-0.9l3.9-0.3c2.7,0,5.4,0.2,8,0.7c0.6,0,1,0.5,1,1.1
	c0.1,1.4,0.1,2.9,0.1,4.3c0,0.5-0.4,0.9-0.9,0.9c-0.5,0.1-1.1,0-1.6,0.1l-6,0.2c-0.8-0.1-1.6,0.1-2.3,0.5
	C65.1,107.3,65.1,109.7,65.2,112.1z"/>
<path d="M97.6,97.8c1.2,0,2.5,0.1,3.7,0.1s1.7,0.4,1.6,1.8c-0.3,1.3-0.4,2.6-0.5,3.9c0,0.2-0.2,0.4-0.4,0.3c0,0-0.1,0-0.1,0
	c-1.9,0-3.8,0.1-5.6,0.4c-1.2,0.1-2.5,0.1-3.7-0.1c-0.9-0.2-1.8-0.2-2.6,0c-0.5,0-0.8,0.4-0.9,0.9c-0.1,1.2-0.1,2.5,0,3.8
	c0.5,0.5,1,0.3,1.3,0.3c2-0.2,4.1-0.2,6.1,0.1c0.7,0.1,0.8,0.3,0.8,1c0.1,1.4,0,2.9-0.1,4.4c0,0.8-0.3,1-1.1,1.1
	c-0.9,0.1-1.9,0.1-2.8,0c-1.1,0-2.2-0.1-3.3-0.2c-0.8,0-1,0.2-1,1.1c0,3.7-0.4,7.4-0.1,11.1c0,0.3,0,0.6,0,0.9
	c0,0.5,0.3,0.8,0.8,0.9c2.1,0.3,4.2,0.4,6.3,0.3c1.4-0.1,2.8,0,4.1,0.1s1.4,0.1,1.7,1.6c0.2,0.9,0.2,1.9,0.1,2.8c0,0.8-0.3,1-1.1,1
	c-3,0.2-6,0.3-9,0.4c-2.3,0-4.5,0.2-6.7,0.6c-0.9,0.3-1.8-0.1-2.1-1c-0.1-0.2-0.1-0.5-0.1-0.8c0-1.3-0.2-2.6-0.1-3.9
	c0.2-2.4,0-4.8,0-7.2c0-1,0-2.1,0.3-3.1c0.1-0.5,0.2-1,0.2-1.5c0-3.3,0.1-6.6-0.3-9.9c-0.2-1.3-0.1-2.7-0.2-4.1
	c-0.1-1.1,0-2.2-0.2-3.3c-0.1-1.1,0-2.2,0.3-3.2c0-0.5,0.4-0.8,0.9-0.8c1.7-0.1,3.3,0,5,0.2c1.4,0.3,2.9,0.3,4.3,0
	c0.8,0,1.6-0.2,2.4-0.4l0,0C96.1,97.6,96.9,97.8,97.6,97.8z M83.9,111.4L83.9,111.4v-0.2V111.4z M96.1,109.9L96.1,109.9l-0.1-0.1
	L96.1,109.9z M99.2,130.9L99.2,130.9l0.1-0.2L99.2,130.9z"/>
<path d="M108.1,116.1c0.1-1.3,0-2.7-0.2-4c-0.2-3.6-0.3-7.1-0.2-10.7c0-0.9,0.1-1.9,0.1-2.8c0-1.2,0.4-1.6,1.7-1.4
	c0.6,0.1,1.3-0.1,1.8,0.4c0.2,0.1,0.5,0.1,0.7,0c0.4-0.3,0.8-0.2,1,0.2c0.3,0.7,0.9,1.4,1.6,1.8c3.5,3,7.2,5.7,10.5,9
	c0.3,0.3,0.6,0.5,0.9,0.8c0.8,0.4,1.3,1.2,2.2,1.3c0.8-0.8,0.3-1.8,0.4-2.7c0.2-2.1,0.2-4.3-0.1-6.4c-0.1-0.5-0.1-1-0.1-1.4
	c0-3.1-0.3-2.7,2.8-2.9c0.2,0,0.5-0.1,0.7-0.1c1.2,0,2.3,1,2.3,2.2c0.2,3.5,0.4,7.1,0.7,10.7c0,0.3,0,0.5,0,0.8
	c-0.5,2.7,0.1,5.3,0.1,8s0.1,5.2,0.2,7.9s0.1,5.4,0.1,8.1c0.1,1.2,0,1.3-1.2,1.5s-2.2,0.2-3.3,0.3s-1.7-0.3-1.7-1.6
	c0-1.4,0-2.9,0-4.3c0.2-3.7-0.5-7.3-0.7-10.9c0-0.5-0.2-0.9-0.6-1.2c-2.9-2.4-5.6-5-8.7-7c-1.2-0.8-2.3-1.7-3.5-2.5
	c-0.4-0.3-0.7-0.6-1.1-0.9c-0.2-0.2-0.6-0.1-0.7,0.1c-0.1,0.1-0.1,0.2-0.1,0.3c-0.1,1.1-0.1,2.2,0.2,3.3c0.3,1.2,0.4,2.4,0.3,3.5
	c0,3.9,0,7.8,0,11.6c0.1,1.1-0.1,2.2-0.3,3.3c-0.2,1.2-0.2,2.4,0.1,3.5c0,0.6,0.1,1.3,0.1,1.9c-0.1,0.4-0.4,0.7-0.8,0.7
	c-0.4,0-0.8,0-1.2-0.1c-3.8-0.3-3-0.3-3.1-3.3s-0.3-6.1-0.4-8.7C107.9,121.8,107.9,118.9,108.1,116.1z M110.4,108.5L110.4,108.5
	l-0.1,0.2L110.4,108.5z M119.6,104.7c-0.2,0-0.2,0.1,0,0.2c0,0,0.1,0,0.2-0.1c-0.2-0.1-0.2,0-0.1,0.1
	C119.8,104.8,119.8,104.7,119.6,104.7z"/>
<path d="M151.7,120.3c0.3,3.5-0.2,7,0.5,10.5c0.2,0.8,0,1.6,0.2,2.4s-0.6,1.5-0.9,2.3c-0.1,0.1-0.2,0.2-0.3,0.3
	c-0.8,0.3-1.7,0.3-2.5,0.5c-0.5,0.2-1.3-0.3-1.9-0.6c-0.1-0.1-0.3-0.2-0.3-0.3c-0.3-0.8-0.4-1.6-0.4-2.5c0.4-2.8,0.2-5.6,0.4-8.4
	c0.1-2.3,0.1-4.7,0-7c-0.4-4-0.1-7.9-0.3-11.9c-0.1-0.5-0.1-1.1-0.2-1.6s-0.3-0.8-0.8-0.7c-1.5,0.1-3,0.2-4.5,0.2
	c-0.5,0-1.3,0.4-1.6-0.1c-0.4-0.5-0.7-1.2-0.9-1.8v-1.4c0-0.7,0-1.4-0.2-2.1c-0.2-0.7,0-0.8,0.6-0.9c1.5-0.2,3.1-0.2,4.7,0
	c1.3,0.2,2.7,0.2,4-0.1c1.1-0.3,2.3-0.4,3.4-0.4c1.8,0,3.6-0.2,5.4,0c4.1,0.2,3.9-0.1,3.8,4.1v0.5c-0.2,1.9-0.4,1.9-2.3,1.8
	c-1.6-0.1-3.3,0-4.9,0c-0.8,0-0.9,0.3-0.9,1.1v8.1C151.8,114.9,151.7,117.6,151.7,120.3z M149.3,103.4c0,0.1,0,0.2,0,0.4
	c0,0.2,0.2,0.2,0.2,0s0-0.3,0-0.4H149.3z"/>
<path d="M178.8,97.8c1.2,0,2.5,0.1,3.7,0.1s1.7,0.4,1.6,1.8c-0.3,1.3-0.4,2.6-0.5,3.9c0,0.2-0.2,0.4-0.4,0.3c0,0-0.1,0-0.1,0
	c-1.9,0-3.8,0.1-5.6,0.4c-1.2,0.1-2.5,0.1-3.7-0.1c-0.9-0.2-1.8-0.2-2.6,0c-0.5,0-0.8,0.4-0.9,0.9c-0.1,1.2-0.1,2.5-0.1,3.8
	c0.5,0.5,1,0.3,1.3,0.3c2-0.2,4.1-0.2,6.1,0.1c0.7,0.1,0.9,0.3,0.9,1c0.1,1.4,0,2.9-0.1,4.4c0,0.8-0.3,1-1.1,1.1
	c-0.9,0.1-1.9,0.1-2.9,0c-1.1,0-2.1-0.1-3.3-0.2c-0.8,0-1,0.2-1,1.1c0,3.7-0.4,7.4-0.1,11.1c0,0.3,0,0.6,0,0.9
	c0.1,0.5,0.3,0.8,0.8,0.9c2.1,0.3,4.2,0.4,6.3,0.3c1.4-0.1,2.8,0,4.1,0.1s1.4,0.1,1.7,1.6c0.2,0.9,0.2,1.9,0.1,2.8
	c0,0.8-0.3,1-1.1,1c-3,0.2-6,0.3-9,0.4c-2.3,0-4.5,0.2-6.7,0.6c-0.9,0.4-1.8,0-2.2-0.9c-0.1-0.3-0.2-0.6-0.1-0.9
	c0-1.3-0.2-2.6-0.1-3.9c0.2-2.4,0.1-4.8,0.1-7.2c0-1,0-2.1,0.3-3.1c0.1-0.5,0.2-1,0.2-1.5c-0.1-3.3,0.1-6.6-0.3-9.9
	c-0.2-1.3-0.1-2.7-0.2-4.1c0-1.1-0.1-2.2-0.2-3.3c-0.1-1.1,0-2.2,0.3-3.2c0-0.5,0.4-0.8,0.9-0.8c1.7-0.1,3.4,0,5.1,0.2
	c1.4,0.3,2.9,0.3,4.3,0c0.8,0,1.6-0.2,2.4-0.4h-0.1C177.2,97.6,178,97.8,178.8,97.8z M165,111.4L165,111.4l0.1-0.2L165,111.4z
	 M177.2,109.9L177.2,109.9l-0.1-0.1L177.2,109.9z M180.3,130.9h0.1v-0.2L180.3,130.9z"/>
<path d="M256.4,105.2c0-0.6-0.1-1.1-0.1-1.7c-0.1-0.5,0.2-1,0.7-1.1c0.3-0.1,0.6-0.3,0.9-0.4c1.7-1.1,3.3-2.4,4.5-4
	c0.7-0.9,1.9-1.4,3-1.2c2.1,0.1,4.2,0,6.3,0.1c0.6,0,1.2-0.1,1.6,0.8c0.2,0.5,0.8,0.9,1.2,1.2c1.8,1.3,3.3,2.8,5.2,4
	c0.5,0.3,0.8,0.8,0.7,1.4c0.3,4.3,0.6,8.7,0.5,13.1c-0.1,3.1,0.1,6.1,0.5,9.2c0.2,1.4-0.3,2.7-1.4,3.6c-2,1.7-3.8,3.6-5.4,5.6
	c-0.6,0.8-1.2,1.2-2.2,0.6c-0.5-0.3-1.2-0.1-1.9-0.1c-2,0-4,0.1-6.1,0.1c-0.6,0-1.2-0.3-1.5-0.9c-1.1-1.5-2.4-2.8-3.8-4
	c-0.5-0.3-0.9-0.7-1.2-1.2c-0.9-0.8-1.4-2-1.3-3.2c0.1-3.3-0.3-6.6,0.1-9.9C256.7,113.1,256.7,109.2,256.4,105.2z M268.8,128.9
	c1,0.1,2.1,0.2,3.1,0.3c0.8,0.1,1.1-0.2,0.9-1c-0.3-1.8-0.4-3.7-0.3-5.5c0.3-6-0.3-12-0.4-18c0-0.8-0.2-1-1-1
	c-1.9-0.1-3.9-0.1-5.8,0.1c-1.6,0-2.1,0.6-2,2v1c-0.1,4.2,0.2,8.4-0.4,12.6c-0.1,0.8-0.1,1.6,0,2.4c0.1,2.2,0.3,4.4,0.4,6.9
	C265.2,128.5,267,128.7,268.8,128.9z M272.1,100.5h-0.2H272.1L272.1,100.5z M275.4,132.3c-1,0.2-1.3,0.9-1.8,1.6
	C274.3,133.5,274.9,133,275.4,132.3z M274.2,103.8c-0.1,0-0.3,0-0.4,0.1c-0.1,0.3,0,0.4,0.3,0.5s0.3,0,0.3-0.2
	S274.4,103.8,274.2,103.8L274.2,103.8z"/>
<path d="M311.5,118.5c0-0.7-0.4-1.1-1.1-0.9c-1.7,0.3-3.5,0.4-5.2,0.3c-0.7,0-1.3-0.3-1.7-0.8c-1.5-1.8-2.8-3.6-4.2-5.5
	c-0.2-0.4-0.3-0.8-0.3-1.2c-0.4-2.3-0.5-4.6-0.4-6.9c0-0.7,0.3-1.3,0.9-1.7c0.7-0.5,1.2-1.1,1.6-1.8c0.5-0.6,1.2-1.1,1.8-1.6
	c0.7-0.6,1.6-0.9,2.5-0.9c2.3,0.1,4.6,0,6.9-0.3c1.4-0.2,2.4,0.7,3.6,0.8c0.4,0.1,0.6,0.9,0.5,1.6c-0.1,0.4-0.4,0.4-0.8,0.5h-5.7
	c-1.1,0-2.1,0.1-3.2,0.3c-2.5,0.2-3.5,2.2-4.9,3.8c-0.2,0.2-0.2,0.6-0.3,1c0,1.4-0.1,3-0.2,4.4c-0.1,0.8,0.3,1.7,0.9,2.2
	c0.7,0.7,1.4,1.4,1.9,2.3c0.5,0.7,1.3,1.1,2.1,1c0.1,0,0.2,0,0.2,0.1l3.2,0.2c1.2,1.1,2.2,2.1,3.4,3.2c0.4,0.3,0.5,0.8,0.5,1.3
	c0,2.2,0.2,4.3,0.2,6.4c0.1,1.4-0.4,2.8-1.4,3.9c-0.7,0.7-1.3,1.5-2,2.2c-0.2,0.1-0.4,0.1-0.6,0c-0.3-0.9-0.8-0.5-1.2-0.3
	c-0.4,0.2-0.8,0.3-1.2,0.3c-2-0.2-4.1-0.5-6.2-0.8c-0.4,0-0.7-0.4-0.7-0.8c0,0,0,0,0-0.1c-0.1-0.3-0.1-0.7-0.1-1
	c0.1-1.4,0.3-1.7,1.6-1.7c2.5,0,4.9-0.5,7.4-0.3c0.2,0.1,0.5,0.1,0.7,0c1-0.1,1.2-0.2,1.2-1.1c0.1-1.3,0-2.7,0-4l0,0
	C311.3,121.1,311.5,119.8,311.5,118.5z M308.1,110c0.9,0.1,1.7,0.1,2.5,0.2c1.1,0.1,2.1,0.6,2.7,1.5c1.1,1.2,2.3,2.4,3.4,3.5
	c0.4,0.4,0.7,0.8,0.6,1.3c0,2.6,0.2,5.2,0.5,7.7c0,0.8,0,1.6,0,2.5c0,1,0,2.1,0,3.2c-0.8,0.6-1.6,1.1-2.3,1.8
	c-1.2,1.1-2.4,2.4-3.5,3.5c-0.5,0.6-1.1,1.2-1.7,1.8c-0.2,0.3-0.5,0.3-0.8,0.1c-0.1-0.1-0.2-0.2-0.2-0.3c-0.4-0.9-1.4-0.9-2.1-0.9
	c-2,0-4,0-6,0c-0.8,0-1-0.2-1-1.1c-0.1-2.1,0.2-2.3,2.2-2.1s4.3,0.4,6.4,0.6c1.3,0.2,2.5-0.3,3.2-1.3c0.4-0.4,0.8-0.8,1.2-1.2
	c0.8-1,1.3-2.1,1.4-3.4c0.1-2.7,0-5.5-0.2-8.2c0-0.6-0.3-1.1-0.7-1.5c-0.7-0.7-1.5-1.3-2.1-2c-0.9-1.2-2.4-1.9-3.9-1.7
	c-0.2,0-0.5,0-0.8,0c-1.2,0.2-1.9-0.5-2.6-1.3c-1.6-1.4-2.3-3.5-1.8-5.6c-0.4-2.5,1.4-3.7,2.8-5.2c0.4-0.2,0.8-0.3,1.2-0.3
	c0.9-0.1,1.8-0.2,2.7-0.2c2.1,0,4.1,0,6.2,0c0.8,0,1.1,0.4,1,1.3c-0.1,0.8-0.8,1-1.1,1.5c-0.3,0.3-0.8,0-1.2,0
	c-2.6-0.2-5.1-0.3-7.7-0.2c-0.4-0.1-0.8,0.2-0.8,0.8c-0.2,1.7,0,3.5,0.5,5.1C306.8,110.1,307.4,110.1,308.1,110z M303.1,99.5
	c-0.2,0-0.5,0-0.3,0.3C302.9,99.7,302.9,99.6,303.1,99.5l0.6-0.4c0-0.1,0.1-0.2,0.1-0.2s-0.1,0-0.1-0.1c0,0.1,0.1,0.3,0.1,0.4
	C303.5,99.2,303.1,99.1,303.1,99.5L303.1,99.5z M305.8,102.8c0,0.1,0.1,0.1,0.2,0.1c0.1,0,0.2-0.1,0.3-0.1
	C306.1,102.6,305.9,102.6,305.8,102.8L305.8,102.8z"/>
<path d="M325.6,101.9c0,2.5,0.1,4.9,0.3,7.3c0.3,4.3,0.5,8.7-0.9,13c-0.5,1.8,0,3.8,0.2,5.6c0.1,0.5,0.3,0.9,0.6,1.3
	c0.5,0.6,1,1.2,1.5,1.9c0.8,1.3,2.2,2.1,3.8,2c1.7,0,3.5,0.4,4.9-0.2c1.8-0.9,3.4-2.1,4.7-3.6c0.3-0.2,0.4-0.5,0.6-0.8
	c0.6-0.8,1-1.8,0.9-2.8c-0.2-2.3-0.3-4.5-0.6-6.7c-0.4-2.6-0.5-5.3-0.2-8c0.4-3.9,0.4-7.9,0-11.8c0-0.3,0-0.5,0-0.7
	c-0.1-0.8,0-0.9,0.9-1.2c1.4-0.4,1.6-0.2,2,1.2c0.1,0.2,0.1,0.3,0.2,0.5c0,2.2,0.2,4.6,0.1,6.9c-0.1,1.2-0.2,2.4-0.1,3.5
	c0.2,3.6,0,7.3,0.1,10.9c0,2.5,0.1,4.9,0.2,7.3c0.1,0.5-0.1,1.1-0.6,1.3c-0.3,0.2-0.6,0.5-0.8,0.9c-0.9,1.6-2.1,3-3.5,4.2
	c-0.6,0.4-1.1,1-1.5,1.6c-0.3,0.7-1,1-1.8,0.9c-2.1-0.1-4.1-0.1-6.2,0c-1.1,0.1-2.2-0.5-2.8-1.4c-0.8-1.1-1.7-2.1-2.7-3
	c-0.4-0.4-0.7-0.9-0.8-1.4c-0.1-0.8,0-1.6-0.7-2.2c-0.1-0.1-0.1-0.3-0.1-0.4c-0.1-4-0.8-7.9-0.5-11.9v-0.7c0.7-3.4,0.4-6.8,0.3-10.2
	c-0.2-2-0.2-3.9,0-5.9c0-0.3,0-0.6-0.2-0.8c-0.2-0.3-0.6-0.5-0.4-0.8c0.3-0.4,0.7-0.6,1.2-0.6c0.6,0.1,1.3,0.2,1.9,0.3
	C325.5,99.1,325.6,100.5,325.6,101.9z M337.6,101c-0.1-0.6-0.1-1.1,0-1.7c0.1-1.3,0.4-1.7,1.7-1.8c0.6-0.1,0.9,0.2,1,0.8
	c0.1,1.4,0.3,2.8,0.3,4.3c0.1,3-0.1,6-0.3,9c-0.3,2.6-0.2,5.2,0.3,7.8c0.3,1.9,0.3,3.9,0.6,5.9c0.1,1.3-0.4,2.5-1.4,3.4
	c-0.1,0.1-0.2,0.2-0.4,0.2c-1.2,0.9-2.1,2.4-3.5,2.7c-1.9,0.2-3.8,0.3-5.7,0.2c-0.6,0.1-1.3-0.3-1.5-0.9c-0.6-1.1-1.7-1.8-2.1-3.1
	c-0.2-0.4-0.4-0.9-0.5-1.3c-0.2-2.5,0.1-5.1,0.7-7.5c0.3-1.2,0.5-2.3,0.5-3.5c0-1.3-0.1-2.7-0.1-4c0-0.2,0-0.5,0-0.7
	c-1-2.8-0.6-5.6-0.7-8.5c0-1.4,0-2.8,0-4.3c0-0.5,0.4-0.8,1-0.7c1,0.2,1.3,0.5,1.3,1.7c0,2.5,0.2,5,0.2,7.6c0.1,3.2,0,6.3-0.3,9.5
	c-0.2,2-0.2,4.1,0.2,6.1c0.2,2,0.2,4,0.2,6c0,1.2,0.2,1.3,1.4,1.4c2,0.3,4,0.3,6,0.2c0.5,0.1,0.9-0.3,1-0.8c0,0,0,0,0,0
	c0.1-0.9,0.2-1.8,0.2-2.6c0-1.5,0-3,0-4.5c0.2-2.5,0.4-4.9,0.5-7.3c0.2-2.1,0.2-4.1,0-6.2C337.9,106,337.7,103.5,337.6,101
	L337.6,101z"/>
<path d="M349.7,116.3c-0.1-1.8,0-3.6,0.3-5.3c0.3-2.1,0.3-4.2,0.2-6.3c-0.3-2,0.6-4,2.2-5.1c1-0.9,2-1.8,2.8-2.8
	c0.5-0.5,1.1-0.7,1.8-0.7c3.3,0,6.5,0,9.8,0.1c0.5,0.1,1.3-0.1,1.5,0.5c0.3,0.6,0.3,1.4,0,2c0,0.2-0.2,0.3-0.4,0.3
	c-1.1,0.2-2.1,0.8-3.3,0.8c-1.8-0.1-3.6,0-5.4-0.1c-1.4-0.2-2.8,0.4-3.6,1.4c-0.1,0.1-0.2,0.2-0.3,0.3c-1.4,0.9-2.1,2.5-1.9,4.1
	c0,1-0.1,1.9-0.2,2.9c-0.1,1.7,0,3.3,0.3,4.9c0.6,4.2,0.8,8.5,0.5,12.8c-0.2,1.8,0.4,3.5,1.7,4.8c0.6,0.6,1.2,1.2,1.5,2
	c0.5,0.8,1.4,1.3,2.4,1.4c2.3,0.4,4.7,0.4,7.1,0.3c0.9-0.1,1.9-0.2,2.7-0.2c0.4,0,0.8,0.1,0.9,0.6c0.2,0.5-0.1,1.1-0.6,1.4
	c-0.3,0.1-0.6,0.2-0.9,0.2c-1.9,0-3.8-0.1-5.7-0.3c-1.4-0.2-2.8-0.2-4.1-0.1c-0.7,0.1-1.3,0.1-2,0c-1.3,0.1-2.5-0.6-3.1-1.8
	c-1-1.7-2.1-3.2-3.2-4.8c-0.7-1-1-2.2-0.9-3.4c0.2-2,0.3-4,0.2-6C350,118.9,349.8,117.6,349.7,116.3z M362.7,133.6
	c-1.2,0.1-2.3,0-3.4-0.3c-0.5-0.1-0.9-0.4-1.1-0.9c-0.6-0.8-1.1-1.7-1.8-2.4c-1.1-1.1-1.6-2.6-1.4-4.1c0.2-1.5,0.3-3,0.3-4.4
	c-0.1-1.8-0.4-3.6-0.5-5.3c-0.2-2.4-0.8-4.8-0.6-7.2c0-1.6,0.2-3.3,0.3-4.9c0.1-0.3,0.2-0.5,0.4-0.8c0.1-0.1,0.1-0.1,0.2-0.2
	c2.2-2.5,2.2-2.6,5.8-2.4c2,0.1,4-0.1,6-0.2c0.3,0,0.7,0,1,0c0.3,0,0.5,0,0.5,0.3s0.1,0.6,0,0.8c-0.5,0.7-1.3,1.1-2.1,1.1
	c-2.3,0-4.6,0.1-6.9-0.2c-0.9-0.1-1.2,0.1-1.1,0.7c-0.1,2.4-0.1,4.8,0.2,7.2c0.6,4.5,0.9,9,0.8,13.5c0.1,1.8,0.1,3.5-0.1,5.3
	c0.3,0.4,0.9,0.4,1.3,0.4c2.8,0.4,5.7,0.6,8.6,0.5c0.4-0.1,0.9,0.2,1,0.6c0,0.1,0,0.1,0,0.2c0,0.8,0.1,1.5,0.3,2.3
	c-2,0.1-3.9,0.1-5.8,0.1c-0.3,0-0.5-0.3-0.8-0.4s-0.5-0.3-0.7-0.5v-0.1c0,0,0,0.1,0.1,0.1c-0.2,0.2,0.2,0-0.1-0.1l0.8,0.5
	C363.6,133.3,363.2,133.6,362.7,133.6L362.7,133.6z M366.5,101.7c0.1,0,0.1-0.1,0.1-0.1s-0.1-0.1-0.2-0.1c0,0,0,0.1,0,0.1
	C366.4,101.7,366.5,101.7,366.5,101.7L366.5,101.7z M367.2,97.2v-0.1H367L367.2,97.2z"/>
<path d="M389.3,97.7c1.7,0.1,3.3,0,4.9,0.1c1,0.1,1.3,0.3,1.3,1.3c0,0.4,0,0.8,0,1.1c0,0.3-0.3,0.5-0.6,0.6c-0.5,0.1-1,0.2-1.5,0.3
	c-1.8,0-3.6-0.1-5.3-0.4c-2.9-0.4-5.8-0.5-8.6-0.3c-1.2,0-1.5,0.3-1.3,1.5c0.3,2.8,0.1,5.6,0.1,8.4c0,1.8,0.1,3.5,0.2,5.3
	c0.2,2,0.2,4,0.1,6c0,3.4,0.1,6.8,0.5,10.1c0.1,1,0.2,1.1,1.2,1.1c2.5,0,5,0,7.6,0.1c2,0.1,4,0.3,6,0.5c0.5,0.1,0.9,0.5,0.9,1.1
	c0,0.1-0.1,0.3-0.1,0.4c-0.2,0.3-0.6,0.5-1,0.5c-1.5,0-3.1,0.1-4.6,0.1c-3.1,0.1-6.1,0.3-9.1,0.4c-1,0-2,0.5-3,0.5
	c-0.4,0-0.8-0.2-1-0.6c-0.3-0.6-0.5-1.2-0.5-1.8c-0.1-3.9,0.1-7.8,0-11.8c0-0.2,0-0.4,0-0.6c0.8-4.5,0.3-8.8,0-13.3
	c-0.1-1.4,0-2.8-0.1-4.2c0-0.9-0.1-1.9-0.2-2.8c0-1.1,0-2.2,0.3-3.3c0.1-0.5,0.5-0.8,0.9-0.8c1.6-0.1,3.1,0,4.7,0.1
	c2.1,0.2,4.1,0.1,6.2-0.1l0,0C387.7,97.6,388.5,97.7,389.3,97.7z M376.3,134.2c-0.1,0-0.1,0-0.1,0.1s0,0.1,0.1,0.1
	c0,0,0-0.1,0.1-0.1S376.3,134.2,376.3,134.2L376.3,134.2z M379.2,102.1c0-0.8,0.3-1.1,1.1-1.1c1.3-0.1,2.7-0.1,4,0
	c1.5,0.1,3.1,0.3,4.6,0.6c0.8,0.1,1.6,0.2,2.4,0.2c0.9,0,1.8,0,2.6,0s1.1,0.3,1.1,1.2c0,0.6,0,0.7-1,0.6c-0.2-0.1-0.4-0.1-0.6-0.1
	c-3.1,0.5-6.3,0.7-9.5,0.4c-2.5-0.1-2.6,0-2.6,2.6c0,2.9-0.2,2.4,2.3,2.4h5.1c0.8,0.1,1.1,0.3,1.1,1.1c0.1,2.1-0.1,1.9-1.9,1.9
	c-0.3,0-0.6,0-0.9-0.1c-2.2-0.4-4.5-0.5-6.8-0.4c-1,0-1.2-0.1-1.2-1.1v-4h0.1L379.2,102.1z M384.6,132.1c-1.1,0-2.2-0.1-3.3-0.1
	c-1.4-0.1-1.5-0.2-1.5-1.6c-0.3-3.5-0.4-6.9-0.4-10.4c0-1.7-0.1-3.4-0.2-5.1c0-0.5,0-1,0-1.6c0-0.7,0.2-0.9,0.9-1
	c1.8-0.1,3.7-0.1,5.5,0.2c1.1,0.1,2.2,0.3,3.3,0.4c0.5,0,0.8,0.2,0.9,0.8v0.7c0,0.8-0.2,1.1-1,1.1c-1,0.1-1.9,0.1-2.9,0.1
	c-1.1-0.1-2.2-0.1-3.3-0.1c-0.9,0-1.1,0.2-1.1,1c0,4-0.4,7.9-0.1,12c0.1,0.9,0.3,1.2,1.2,1.2c2,0.1,4,0.1,6,0.2h4.4
	c1.1,0.1,1.1,0.1,1.4,1.1c0.1,0.3,0.2,0.6,0.2,0.9c0.1,0.3,0,0.7-0.4,0.8c-0.1,0-0.2,0-0.3,0l-6.2-0.5v0.1L384.6,132.1z M390,97
	c-1,0.3-2,0.4-3,0.2l0,0C388,96.9,389,96.8,390,97z M391.8,96.7C391.8,96.6,391.8,96.6,391.8,96.7c0.2-0.1,0.3,0,0.5,0H391.8z
	 M392,131.1c0,0,0,0.1,0.1,0.1c0-0.1,0-0.2,0-0.2s0,0.2-0.1,0.3C392.1,130.9,392.4,131.2,392,131.1L392,131.1z"/>
<path d="M412,118.5c0-0.7-0.4-1.1-1.1-0.9c-1.7,0.3-3.5,0.4-5.3,0.3c-0.7,0-1.3-0.3-1.7-0.8c-1.5-1.8-2.9-3.6-4.2-5.5
	c-0.2-0.4-0.3-0.8-0.3-1.2c-0.4-2.3-0.5-4.6-0.4-6.9c0-0.7,0.3-1.3,0.9-1.7c0.7-0.5,1.2-1.1,1.6-1.8c0.5-0.6,1.2-1.1,1.8-1.6
	c0.7-0.6,1.6-0.9,2.5-0.9c2.3,0.1,4.6,0,6.9-0.3c1.3-0.2,2.4,0.7,3.6,0.8c0.4,0.1,0.6,0.9,0.5,1.6c-0.1,0.4-0.4,0.4-0.8,0.5h-5.7
	c-1.1,0-2.1,0.1-3.2,0.3c-2.5,0.2-3.5,2.2-4.9,3.8c-0.2,0.2-0.2,0.6-0.3,1c0,1.4-0.1,3-0.2,4.4c-0.1,0.8,0.2,1.7,0.9,2.2
	c0.7,0.7,1.4,1.4,1.9,2.3c0.5,0.7,1.3,1.1,2.1,1c0.1,0,0.2,0,0.2,0.1l3.2,0.2c1.2,1.1,2.2,2.1,3.4,3.2c0.4,0.3,0.5,0.8,0.5,1.3
	c0.1,2.2,0.2,4.3,0.2,6.4c0.1,1.4-0.4,2.8-1.4,3.9c-0.7,0.7-1.3,1.5-2,2.2c-0.2,0.1-0.4,0.1-0.6,0c-0.3-0.9-0.8-0.5-1.2-0.3
	c-0.4,0.2-0.8,0.3-1.2,0.3c-2-0.2-4.1-0.5-6.2-0.8c-0.4,0-0.7-0.4-0.7-0.8c0,0,0,0,0,0c0-0.3,0-0.7,0-1c0-1.4,0.3-1.7,1.6-1.7
	c2.5,0,4.9-0.5,7.4-0.3c0.2,0.1,0.5,0.1,0.7,0c1-0.1,1.2-0.2,1.2-1.1c0.1-1.3,0-2.7,0-4h0C411.9,121.1,412,119.8,412,118.5z
	 M408.6,110c0.9,0.1,1.7,0.1,2.5,0.2c1.1,0.1,2.1,0.6,2.7,1.5c1.1,1.2,2.3,2.4,3.4,3.5c0.4,0.4,0.7,0.8,0.6,1.3
	c0,2.6,0.2,5.2,0.5,7.7c0,0.8,0,1.6,0,2.5c0,1,0,2.1,0,3.2c-0.8,0.6-1.6,1.1-2.3,1.8c-1.2,1.1-2.4,2.4-3.5,3.5
	c-0.5,0.6-1.1,1.2-1.7,1.8c-0.2,0.3-0.6,0.3-0.8,0.1c-0.1-0.1-0.1-0.2-0.2-0.3c-0.4-0.9-1.3-0.9-2.1-0.9c-2,0-4,0-6,0
	c-0.8,0-1-0.2-1-1.1c-0.1-2.1,0.2-2.3,2.2-2.1s4.3,0.4,6.4,0.6c1.3,0.2,2.5-0.3,3.2-1.4c0.4-0.4,0.8-0.8,1.2-1.2
	c0.8-1,1.3-2.1,1.4-3.4c0.1-2.7,0.1-5.5-0.2-8.2c0-0.6-0.3-1.1-0.7-1.5c-0.7-0.7-1.5-1.3-2.1-2c-0.9-1.2-2.4-1.9-3.9-1.7
	c-0.2,0-0.5,0-0.8,0c-1.2,0.2-1.9-0.5-2.6-1.3c-1.6-1.4-2.3-3.5-1.8-5.6c-0.4-2.5,1.4-3.7,2.8-5.2c0.4-0.2,0.8-0.3,1.2-0.3
	c0.9-0.1,1.8-0.2,2.7-0.2c2.1,0,4.1,0,6.2,0c0.8,0,1.1,0.4,1,1.3c-0.1,0.8-0.8,1-1.1,1.5c-0.3,0.3-0.8,0-1.2,0
	c-2.6-0.2-5.1-0.3-7.7-0.2c-0.4-0.1-0.8,0.2-0.8,0.8c-0.2,1.7,0,3.5,0.5,5.1C407.3,110,407.9,110.1,408.6,110z M403.6,99.5
	c-0.2,0-0.5,0-0.3,0.3C403.4,99.7,403.4,99.6,403.6,99.5l0.6-0.4c0-0.1,0.1-0.2,0.1-0.2s-0.1,0-0.1-0.1c0,0.1,0.1,0.3,0.1,0.4
	C404,99.2,403.6,99.1,403.6,99.5L403.6,99.5z M406.3,102.8c0.1,0.1,0.1,0.1,0.2,0.1c0.1,0,0.2-0.1,0.3-0.1
	C406.6,102.6,406.4,102.6,406.3,102.8L406.3,102.8z"/>
<path d="M435.1,118.5c0-0.7-0.4-1.1-1.1-0.9c-1.7,0.3-3.5,0.4-5.3,0.3c-0.7,0-1.3-0.3-1.7-0.8c-1.5-1.8-2.8-3.6-4.2-5.5
	c-0.2-0.4-0.3-0.8-0.3-1.2c-0.4-2.3-0.5-4.6-0.4-6.9c0-0.7,0.3-1.3,0.9-1.7c0.7-0.5,1.2-1.1,1.6-1.8c0.5-0.6,1.2-1.1,1.8-1.6
	c0.7-0.6,1.6-0.9,2.5-0.9c2.3,0.1,4.6,0,6.9-0.3c1.3-0.2,2.4,0.7,3.6,0.8c0.4,0.1,0.6,0.9,0.5,1.6c-0.1,0.4-0.4,0.4-0.8,0.5h-5.7
	c-1.1,0-2.1,0.1-3.2,0.3c-2.5,0.2-3.5,2.2-4.9,3.8c-0.2,0.2-0.2,0.6-0.3,1c0,1.4-0.1,3-0.2,4.4c-0.1,0.8,0.3,1.7,0.9,2.2
	c0.7,0.7,1.4,1.4,1.9,2.3c0.5,0.7,1.3,1.1,2.1,1c0.1,0,0.2,0,0.2,0.1l3.2,0.2c1.2,1.1,2.2,2.1,3.4,3.2c0.4,0.3,0.5,0.8,0.5,1.3
	c0,2.1,0.2,4.3,0.2,6.4c0.1,1.4-0.4,2.8-1.4,3.9c-0.7,0.7-1.3,1.5-2,2.2c-0.2,0.1-0.4,0.1-0.6,0c-0.3-0.9-0.8-0.5-1.2-0.3
	c-0.4,0.2-0.8,0.3-1.2,0.3c-2-0.2-4.1-0.5-6.2-0.8c-0.4,0-0.7-0.4-0.7-0.8c0,0,0,0,0,0c0-0.3-0.1-0.7,0-1c0-1.4,0.3-1.7,1.6-1.7
	c2.5,0,4.9-0.5,7.4-0.3c0.2,0,0.5,0,0.7,0c1-0.1,1.2-0.2,1.2-1.1c0-1.3,0-2.7,0-4h-0.1C435,121.1,435.1,119.8,435.1,118.5z
	 M431.7,110c0.9,0.1,1.7,0.1,2.5,0.2c1.1,0.1,2.1,0.6,2.7,1.5c1.1,1.2,2.3,2.4,3.4,3.5c0.4,0.4,0.7,0.8,0.6,1.3
	c0,2.6,0.2,5.2,0.5,7.7c0.1,0.8,0.1,1.6,0.1,2.5c0,1-0.1,2.1-0.1,3.2c-0.8,0.6-1.6,1.1-2.3,1.8c-1.2,1.1-2.4,2.4-3.5,3.5
	c-0.5,0.6-1.1,1.2-1.7,1.8c-0.2,0.3-0.6,0.3-0.8,0.1c-0.1-0.1-0.1-0.2-0.2-0.3c-0.4-0.9-1.3-0.9-2.1-0.9c-2,0-4,0-6,0
	c-0.8,0-1-0.2-1-1.1c0-2.1,0.2-2.3,2.2-2.1s4.3,0.4,6.4,0.6c1.3,0.2,2.5-0.3,3.2-1.4c0.4-0.4,0.9-0.8,1.2-1.2c0.8-1,1.3-2.1,1.4-3.4
	c0.1-2.7,0.1-5.5-0.2-8.2c0-0.6-0.3-1.1-0.7-1.5c-0.7-0.7-1.5-1.3-2.1-2c-0.9-1.2-2.4-1.9-3.9-1.7c-0.2,0-0.5,0-0.8,0
	c-1.2,0.2-1.9-0.5-2.6-1.3c-1.6-1.4-2.3-3.5-1.8-5.6c-0.4-2.5,1.4-3.7,2.8-5.2c0.4-0.2,0.8-0.3,1.2-0.3c0.9-0.1,1.8-0.2,2.7-0.2
	c2.1,0,4.1,0,6.2,0c0.8,0,1.1,0.4,1,1.3c-0.1,0.8-0.8,1-1.1,1.5c-0.3,0.3-0.8,0-1.2,0c-2.6-0.2-5.1-0.3-7.7-0.2
	c-0.4-0.1-0.8,0.2-0.8,0.8c-0.2,1.7,0,3.5,0.5,5.1C430.4,110,431.1,110.1,431.7,110z M426.7,99.5c-0.2,0-0.5,0-0.3,0.3
	C426.5,99.7,426.6,99.6,426.7,99.5c0.2-0.2,0.4-0.3,0.6-0.4c0-0.1,0-0.2,0-0.2s0,0,0-0.1c0,0.1,0,0.3,0,0.4
	C427.1,99.2,426.8,99.1,426.7,99.5L426.7,99.5z M429.4,102.8c0.1,0.1,0.1,0.1,0.2,0.1c0.1,0,0.2-0.1,0.3-0.1
	C429.7,102.6,429.5,102.6,429.4,102.8L429.4,102.8z"/>
<path d="M446,105.3c0-0.6-0.1-1.1-0.1-1.7c-0.1-0.5,0.2-1,0.6-1.1c2-1,3.7-2.4,5.1-4.1c0.8-1.1,2.2-1.7,3.5-1.4c2,0.2,4,0.2,6,0.2
	c0.6-0.1,1.1,0.2,1.3,0.8c0.2,0.4,0.6,0.6,1,1l5.3,4c0.5,0.3,0.7,0.8,0.7,1.4c0.3,4.6,0.6,9.2,0.5,13.7c0,2.8,0.1,5.6,0.5,8.3
	c0.2,1.2-0.3,2.4-1.2,3.2c-2,1.7-3.8,3.6-5.4,5.6c-0.5,0.7-1.1,1.3-2.2,0.7c-0.6-0.2-1.2-0.2-1.9-0.1c-2,0-4,0.1-6,0.1
	c-0.6,0-1.1-0.2-1.4-0.7c-1.1-1.6-2.4-3-3.9-4.2c-0.5-0.4-0.9-0.8-1.3-1.3c-0.8-0.8-1.2-1.9-1.1-3c0.1-2,0-4,0-6v-3.8
	C446.4,113,446.3,109.1,446,105.3z M467.1,117.3c0-1.5-0.1-3,0-4.5c0-2.5-0.1-5.1-0.5-7.6c-0.1-0.9-0.5-1.7-1.2-2.3
	c-1.2-1-2.4-1.9-3.5-2.9c-0.4-0.3-0.8-0.5-1.3-0.5c-1.8,0-3.6,0-5.5,0c-0.6,0-1.3,0.2-1.8,0.6l-3.9,2.8c-0.4,0.3-0.7,0.6-1,1
	c-0.3,0.5,0.3,0.8,0.4,1.2c0.1,0.6,0.2,1.2,0.2,1.9c0,2.3,0,4.6,0.1,6.9c0,3.2,0,6.5-0.9,9.6c-0.1,0.5-0.2,1.1-0.3,1.6
	c-0.2,0.9,0.2,1.8,0.9,2.3c1.6,1.2,3,2.6,4.2,4.1c0.4,0.5,1,0.8,1.7,0.8c1.3,0,2.5,0.1,3.8,0.3c0.9,0.1,1.9-0.1,2.6-0.8
	c1.1-1.1,2.4-2.1,3.8-3c1.2-0.8,1.9-2.1,2-3.5c0.1-0.6,0.1-1.1,0-1.7L467.1,117.3L467.1,117.3z M463.5,102.8
	c0.3,0.3,0.7,0.6,1.1,0.9c0.4,0.3,0.7,0.7,0.8,1.2c0.9,3.3,1.1,6.8,0.6,10.1c-0.1,1.2-0.1,2.5-0.1,3.8c0,2.2,0.4,4.5-0.4,6.6v0.3
	c0.3,1.6-0.5,2.4-1.7,3.2c-1,0.7-1.9,1.4-2.7,2.2c-0.6,0.6-1.5,0.9-2.4,0.8c-0.3-0.1-0.6-0.1-0.9-0.1c-1.1,0-2.2-0.1-3.3-0.3
	c-1-0.3-1.3-1.5-2.1-2.2s-1.4-1.2-2.2-1.8c-0.8-0.5-1.2-1.5-1-2.5c0.1-0.9,0.2-1.7,0.4-2.6c0.4-1.8,0.6-3.6,0.5-5.4
	c0-3.7,0-7.4-0.1-11.2c-0.1-1,0.4-1.9,1.2-2.4c0.4-0.2,0.7-0.4,1-0.7c1.5-1.6,3.7-2.3,5.9-1.8C460,100.4,462.2,101.1,463.5,102.8
	L463.5,102.8z M459.2,128.6c0.7,0.1,1.4,0.1,2.1,0.1c0.6,0,0.9-0.3,0.8-0.9c-0.4-2.4-0.5-4.9-0.3-7.3c0.2-5.2-0.4-10.5-0.4-15.7
	c0-0.8-0.2-1-0.9-1.2c-0.2-0.1-0.5-0.1-0.7-0.1c-2.1,0-4.1,0.1-6.2,0.4c-0.4,0-0.7,0.4-0.8,0.8c-0.1,0.3-0.1,0.6-0.1,0.9
	c0,4.8,0.1,9.7-0.3,14.5c-0.1,2.7,0,5.3,0.3,8C455,128.1,457.1,128.3,459.2,128.6L459.2,128.6z M462.6,133.5l0-0.2
	c0.3,0.1,0.6,0,0.6-0.4c0.3,0.1,0.5-0.1,0.5-0.4c0.3,0,0.5-0.1,0.5-0.5c0.1,0,0.2,0,0.3-0.1c-0.1-0.1-0.1-0.1-0.2-0.2
	c0,0.1-0.1,0.3-0.2,0.4c-0.3-0.1-0.5,0.1-0.4,0.5c-0.3-0.1-0.5,0.1-0.5,0.4c-0.3,0-0.5,0.2-0.6,0.4L462.6,133.5z M463.1,104.2
	c0.1,0.1,0.2,0.1,0.4,0.2c0,0,0.2-0.2,0.2-0.3s-0.2-0.2-0.3-0.2C463.3,104,463.2,104.1,463.1,104.2L463.1,104.2z"/>
<path d="M105.7,172.4c0.1,0.4-0.1,0.7-0.3,1c-0.6,0.6-1,1.2-1.3,2c-0.5,0.8-1.2,1.5-2,2c-0.6,0.5-1.3,1-1.9,1.5
	c-0.5,0.5-1.2,0.6-1.8,0.3c-0.5-0.2-1-0.3-1.5-0.2c-1.5,0.2-3.1,0.2-4.6-0.2c-1.4,0.3-2.7-0.2-4.1-0.2c-1,0.1-1.1-0.2-1.2-1.2
	c0-0.4,0-0.9,0-1.3c0-1.6-0.1-3.2-0.4-4.8c-0.2-0.8-0.2-1.6-0.2-2.4c-0.1-3.1,0-6.2,0.3-9.2c0.2-2.3,0.1-4.5-0.1-6.8
	c-0.3-3.9-0.3-7.8-0.2-11.6c0.1-1.2,0.3-1.5,1.6-1.5c2.4-0.2,4.8-0.1,7.2,0.2c0.6,0.1,1.2,0.1,1.8,0.1c0.8-0.1,1.6,0.2,2.1,0.9
	c0.9,1,1.9,1.8,3.1,2.4c0.8,0.5,1.6,0.9,1.8,1.8c0.1,0.3,0.3,0.5,0.5,0.6c0.6,0.5,0.9,1.2,0.7,1.9c0,2.5,0,5,0,7.5
	c0.1,1.6,0.2,3.2,0.4,5.5L105.7,172.4z M87.2,164.7c-0.1,0.1-0.1,0.2-0.1,0.4v0.4c0-0.1,0-0.2,0.1-0.3V164.7z M89.8,154
	c0,0-0.1,0.1-0.1,0.2s0.1,0.4,0.1,0.5c0.1-0.1,0.2-0.2,0.3-0.2C90,154.3,90.1,154.1,89.8,154z M93.3,169.7c0.2,0.9-0.2,2.1,0.9,2.5
	c0.9,0.2,1.9,0.2,2.8,0.1c0.5,0,1-0.3,1-0.8c0-0.1,0-0.1,0-0.2c0-0.6,0-1.2,0-1.8c-0.2-2.7-0.2-5.4-0.4-8.1
	c-0.4-4.4-0.3-8.9,0.4-13.3c0.2-0.6,0.2-1.3,0-1.9c-0.1-0.5-0.3-0.8-0.9-0.7c-0.9,0.1-1.9,0.2-2.8,0.4c-0.7,0.1-0.8,0.3-0.9,1.1v1.5
	c0,2.9,0,5.9-0.3,8.7c-0.3,2.5-0.3,5-0.4,7.5C92.7,166.4,92.9,168.1,93.3,169.7L93.3,169.7z M97.4,140.5c-0.2,0.1-0.3,0.2-0.1,0.3
	c0.1,0,0.2-0.1,0.2-0.1s0-0.1,0-0.2S97.4,140.6,97.4,140.5L97.4,140.5z M97.6,178l0.1-0.1L97.6,178L97.6,178z M99.8,155v0.2h0.1
	L99.8,155z M102,169c0,0.1-0.1,0.2,0,0.2s0,0.1,0,0.2v-0.2C102.1,169.2,102,169.1,102,169L102,169z"/>
<path d="M110.9,148.1c0-0.6-0.1-1.1-0.1-1.7c-0.1-0.5,0.2-1,0.7-1.1c0.3-0.1,0.5-0.3,0.9-0.4c1.7-1.1,3.3-2.4,4.5-4
	c0.7-0.9,1.9-1.3,3-1.2c2.1,0.1,4.2,0.1,6.3,0.1c0.6,0,1.2-0.1,1.6,0.8c0.2,0.5,0.8,0.9,1.2,1.2c1.8,1.3,3.3,2.8,5.2,4
	c0.5,0.3,0.7,0.8,0.7,1.4c0.3,4.3,0.6,8.7,0.5,13.1c-0.1,3.1,0.1,6.1,0.5,9.2c0.3,1.4-0.3,2.8-1.4,3.6c-2,1.7-3.8,3.6-5.4,5.6
	c-0.6,0.8-1.2,1.2-2.3,0.6c-0.5-0.3-1.2-0.1-1.9-0.1c-2,0-4,0.1-6.1,0.1c-0.6,0-1.2-0.3-1.6-0.9c-1.1-1.5-2.4-2.8-3.8-4
	c-0.5-0.3-0.9-0.7-1.2-1.2c-0.9-0.8-1.4-2-1.3-3.2c0.1-3.3-0.3-6.6,0.1-9.9C111.3,156,111.3,152.1,110.9,148.1z M123.4,171.8
	c1,0,2.1,0.2,3.1,0.3c0.8,0.1,1.1-0.2,0.9-1c-0.3-1.8-0.4-3.7-0.3-5.5c0.3-6-0.3-12-0.4-18c0-0.8-0.2-1-1-1
	c-1.9-0.1-3.9-0.1-5.8,0.1c-1.6,0-2.1,0.6-2,2v1c-0.1,4.2,0.2,8.4-0.4,12.6c-0.1,0.8-0.1,1.6,0,2.4c0.1,2.2,0.3,4.4,0.4,6.9
	C119.7,171.5,121.6,171.6,123.4,171.8L123.4,171.8z M126.7,143.4h-0.2l0.2,0.1V143.4z M129.9,175.2c-1,0.2-1.3,0.9-1.8,1.6
	C128.8,176.4,129.5,175.9,129.9,175.2L129.9,175.2z M128.8,146.7c-0.1,0-0.3,0-0.4,0.1c-0.1,0.3,0.1,0.4,0.3,0.5s0.3,0,0.3-0.2
	S129,146.7,128.8,146.7L128.8,146.7z"/>
<path d="M157,158.4c-3.2-3.6-3.7-4.9-3.9-9.7v-1c-0.1-1.5,0-2.8,1.4-3.8c0.6-0.4,0.9-1.2,1.4-1.7c1.1-1.2,2.6-2,4.3-2
	c2.4,0,4.8-0.2,7.1-0.2c0.5,0,1.2-0.2,1.4,0.6c0.2-0.1,0.2-0.1,0.1,0c-0.1,0-0.1-0.1-0.1-0.2l1.2,0.2c0.4,0,0.8,0.4,0.8,0.8
	c0,1.2,0.2,2.5,0.1,3.6c0,1-0.9,1.8-1.9,1.8c-0.1,0-0.2,0-0.3,0c-2.4-0.3-4.9-0.4-7.4-0.3c-0.9,0-1,0.2-1.1,1
	c-0.1,0.7-0.1,1.5,0,2.2c0.5,3-0.2,3,3.1,3c0.4,0,0.9,0.1,1.2,0.1c1.3,0,2.6,0.6,3.4,1.7c0.3,0.4,0.6,0.8,1,1.1l2.9,3
	c0.1,1.4,0,2.8,0.1,4.2c0.3,2.6,0.5,5.2,0.5,7.9c0,0.5,0,1-0.1,1.5c0,0.3-0.1,0.6-0.4,0.8c-2.2,1.4-4.2,3.2-5.8,5.3
	c-0.4,0.4-0.8,0.8-1.2,1.2c-0.4,0.3-0.9,0.3-1.1-0.1c-0.4-0.8-1-0.8-1.7-0.8h-5.9c-1.4,0-1.6-0.2-1.5-1.6c0.1-1.7,0.1-3.4,0.2-5.1
	c0.1-0.9,0.3-1.2,1.2-1.3c1.9-0.2,3.9-0.2,5.9-0.3c1-0.1,2,0,2.9,0c0.4-0.1,0.8-0.4,0.8-0.8v-0.3c-0.1-2.6,0-5.3,0.2-7.9
	c0.1-0.7-0.3-1-1.1-0.9c-1.6,0.2-3.3,0.2-4.9,0.2c-0.5,0.1-1-0.1-1.4-0.3c-0.3-0.2-0.4-0.5-0.2-0.8c-0.2,0.1-0.2-0.1-0.1-0.1
	c0.3,0,0-0.2,0.1,0.1C157.6,159.4,157.3,158.9,157,158.4z M157.3,141.9l0.1,0.1L157.3,141.9c0.4,0,0.6-0.1,0.7-0.5
	c0.2,0,0.2,0,0.1,0.1c0-0.1,0.1-0.1,0.1-0.1C157.8,141.5,157.6,141.7,157.3,141.9L157.3,141.9z M160.5,145.7c-0.1,0-0.1,0-0.2,0.1
	c0,0,0,0.1,0,0.1c0.1,0,0.1,0,0.2-0.1C160.5,145.8,160.6,145.7,160.5,145.7L160.5,145.7z M161.3,156.6c0.1,0.1,0.1,0.1,0.2,0.1h0.2
	c0,0,0-0.1,0.1-0.1H161.3z M163.8,174.2c-0.1,0.1-0.2,0.2-0.3,0.3c0.1,0.1,0.2,0.1,0.4,0.1c0.2-0.1,0.3-0.2,0.4-0.3
	c-0.2,0-0.2-0.1-0.1-0.1v0.2C164.1,174.3,163.9,174.2,163.8,174.2L163.8,174.2z"/>
<path d="M192.1,140.7c1.2,0,2.5,0.1,3.7,0.1s1.7,0.4,1.6,1.8c-0.3,1.3-0.4,2.6-0.5,3.9c0,0.2-0.2,0.4-0.4,0.3c0,0,0,0-0.1,0
	c-1.9,0-3.8,0.1-5.6,0.4c-1.2,0.1-2.5,0.1-3.7-0.1c-0.9-0.2-1.8-0.2-2.6-0.1c-0.5,0-0.8,0.4-0.9,0.9c-0.1,1.3-0.1,2.5-0.1,3.8
	c0.5,0.5,1,0.3,1.3,0.3c2-0.2,4.1-0.2,6.1,0.1c0.7,0.1,0.9,0.3,0.9,1c0.1,1.4,0,2.9,0,4.4c0,0.8-0.3,1-1.1,1.1
	c-0.9,0.1-1.9,0.1-2.9,0c-1.1,0-2.1-0.1-3.3-0.2c-0.8,0-1,0.2-1,1.1c0,3.7-0.4,7.5-0.1,11.2c0,0.3,0,0.6,0,0.9
	c0,0.4,0.3,0.8,0.8,0.9c0,0,0,0,0.1,0c2.1,0.3,4.2,0.4,6.3,0.3c1.4-0.1,2.8,0,4.1,0.1s1.4,0.1,1.7,1.6c0.2,0.9,0.2,1.9,0.1,2.9
	c0,0.8-0.3,1-1.1,1c-2.9,0.2-5.9,0.3-9,0.4c-2.3,0-4.5,0.2-6.7,0.6c-0.9,0.4-1.9-0.1-2.2-0.9c-0.1-0.3-0.2-0.6-0.1-0.9
	c0-1.3-0.2-2.6-0.1-3.9c0.2-2.4,0-4.8,0-7.2c0-1,0-2.1,0.3-3.1c0.1-0.5,0.2-1,0.2-1.5c0-3.3,0.1-6.6-0.3-9.9
	c-0.2-1.3-0.1-2.7-0.2-4.1c-0.1-1.1,0-2.2-0.2-3.3c-0.1-1.1,0-2.2,0.3-3.2c0-0.5,0.4-0.8,0.9-0.8c1.7-0.1,3.4,0,5.1,0.2
	c1.4,0.3,2.9,0.3,4.3,0c0.8,0,1.6-0.2,2.4-0.4l0,0C190.7,140.4,191.4,140.7,192.1,140.7z M178.4,154.3L178.4,154.3l0.1-0.1
	L178.4,154.3z M190.6,152.8l0.1-0.1h-0.2L190.6,152.8z M193.7,173.8h0.1l-0.1-0.2L193.7,173.8z"/>
<path d="M208.1,159c-0.2,2-0.2,4,0.1,6c0.2,1.8,0.2,3.6,0.3,5.5c0.1,0.5,0.1,0.9,0.1,1.4c0.1,0.4,0.2,0.6,0.6,0.6
	c2.1,0.4,4.2,0.5,6.4,0.3c1-0.2,1.2-0.3,1.3-1.3c0.1-0.9,0.2-1.8,0.2-2.6c0-2,0-4,0.1-5.9c0.1-1.6,0.4-3.1,0.5-4.7
	c0.3-4.4-0.1-8.7-0.3-13.1c-0.1-1.1-0.1-2.2,0-3.3c0-0.9,0.3-1.1,1.1-1.2c1.1-0.2,2.2-0.2,3.3-0.4c1.8-0.3,1.9,0.3,2.1,1.8
	c0.3,2.2,0.3,4.4,0.2,6.6c-0.1,1.2-0.2,2.5-0.2,3.8c0.2,3.2,0.1,6.4,0.2,9.6c0,2.8,0.1,5.5,0.1,8.3c0.1,0.8,0.1,1.4-0.7,1.9
	c-0.4,0.3-0.7,0.7-0.8,1.1c-0.8,1.2-1.7,2.3-2.7,3.3c-0.9,0.7-1.6,1.5-2.3,2.4c-0.4,0.6-1.2,0.9-1.9,0.7c-1.3-0.3-2.7-0.3-4-0.2
	c-0.7,0.1-1.4,0.1-2.1,0c-1,0.1-1.9-0.4-2.4-1.2c-0.8-1.1-1.7-2.1-2.7-3c-0.5-0.5-0.8-1.2-0.9-1.9c0-0.6-0.2-1.3-0.6-1.8
	c-0.2-0.2-0.2-0.6-0.2-0.9c0.1-1.2,0.1-2.4-0.2-3.6c-0.4-3.4-0.4-6.8,0-10.2c0.1-1.3,0.2-2.5,0.1-3.8c-0.1-2.5,0.2-4.9-0.3-7.4
	c-0.1-0.9,0-1.7,0.2-2.6c0.2-0.7,0-1.4-0.4-2c-0.2-0.2-0.2-0.5,0-0.7c0.1-0.1,0.2-0.2,0.4-0.2c1.5,0,3-0.1,4.5,0
	c0.9,0,1.3,0.6,1.3,1.7c0.1,2.4,0.1,4.9,0.2,7.8C208.5,152.8,208.4,155.9,208.1,159z"/>
<path d="M258.1,140.7c1.2,0,2.5,0.1,3.7,0.1s1.7,0.4,1.6,1.8c-0.3,1.3-0.4,2.6-0.5,3.9c0,0.2-0.2,0.4-0.4,0.3c0,0-0.1,0-0.1,0
	c-1.9,0-3.8,0.1-5.6,0.4c-1.2,0.1-2.5,0.1-3.7-0.1c-0.9-0.2-1.8-0.2-2.6-0.1c-0.5,0-0.8,0.4-0.9,0.9c-0.1,1.3-0.1,2.5-0.1,3.8
	c0.5,0.5,1,0.3,1.3,0.3c2-0.2,4.1-0.2,6.1,0.1c0.7,0.1,0.9,0.3,0.9,1c0.1,1.4,0,2.9,0,4.4c0,0.8-0.3,1-1.1,1.1
	c-0.9,0.1-1.9,0.1-2.8,0c-1.1,0-2.1-0.1-3.3-0.2c-0.8,0-1,0.2-1,1.1c0,3.7-0.4,7.5-0.1,11.2c0,0.3,0.1,0.6,0.1,0.9
	c0,0.4,0.3,0.8,0.8,0.9c0,0,0,0,0,0c2.1,0.3,4.2,0.4,6.3,0.3c1.4-0.1,2.8,0,4.1,0.1s1.4,0.1,1.7,1.6c0.2,0.9,0.2,1.9,0.1,2.9
	c0,0.8-0.3,1-1.1,1c-3,0.2-5.9,0.3-9,0.4c-2.3,0-4.5,0.2-6.7,0.6c-0.9,0.4-1.9-0.1-2.2-0.9c-0.1-0.3-0.2-0.6-0.1-0.9
	c0-1.3-0.2-2.6-0.1-3.9c0.2-2.4,0.1-4.8,0.1-7.2c0-1,0-2.1,0.3-3.1c0.1-0.5,0.2-1,0.2-1.5c-0.1-3.3,0.1-6.6-0.3-9.9
	c-0.2-1.3-0.1-2.7-0.2-4.1c0-1.1-0.1-2.2-0.2-3.3c-0.1-1.1,0-2.2,0.3-3.2c0-0.5,0.4-0.8,0.9-0.8c1.7-0.1,3.3,0,5,0.2
	c1.4,0.3,2.9,0.3,4.4,0c0.8,0,1.6-0.2,2.4-0.4H256C256.6,140.5,257.3,140.7,258.1,140.7z M244.4,154.3L244.4,154.3l0.1-0.1
	L244.4,154.3z M256.6,152.8l0-0.1h-0.2L256.6,152.8z M259.7,173.8h0.1l0-0.2L259.7,173.8z"/>
<path d="M268.7,140.4c0.9-0.2,1.8-0.3,2.8-0.4c0.6,0.8,0.3,1.8,0.6,2.7c0.8,2.7,1.5,5.5,2,8.3c0.3,1.7,0.6,3.4,0.9,5.1
	c0.4,2.4,1,4.8,1.6,7.2c0.3,1.1,0.3,2.4,0.9,3.4c0.6-0.2,0.7-0.7,0.8-1.2c0.3-3.1,1-6.1,2-9c0.3-1,0.5-2,0.6-3
	c0.3-2.9,1-5.8,1.9-8.6c0.2-0.8,0.4-1.5,0.5-2.3c0.1-0.5,0.3-1,0.7-1.4c0.4-0.5,1-0.8,1.7-0.6c0.9,0.4,1.8,0.6,2.8,0.6
	c0.5-0.1,0.9,0.4,0.7,0.9c-1,3.1-1.3,6.4-2.2,9.5c-0.1,0.4-0.1,0.8-0.3,1.1c-1.8,4.9-2.6,10.1-3.6,15.3c-0.5,2.4-0.6,4.8-1,7.3
	c0,0.2-0.1,0.3-0.1,0.5c-0.2,1.6-0.6,2.8-2.5,3.1c-0.8,0.2-1.7,0.2-2.6,0.2c-1.7-0.1-2.2-0.5-2.4-2.1c-0.5-4.8-2.2-9.4-3.2-14.1
	c-0.4-1.6-0.7-3.3-0.9-4.9c-0.3-2.4-0.8-4.7-1.5-7c-0.6-2-1.2-4.1-1.8-6.2c-0.5-1.9-0.5-1.9-0.1-4.2
	C267.6,140.5,268.2,140.4,268.7,140.4z"/>
<path d="M308.1,140.7c1.2,0,2.5,0.1,3.7,0.1s1.7,0.4,1.6,1.8c-0.3,1.3-0.4,2.6-0.5,3.9c0,0.2-0.2,0.4-0.4,0.3c0,0-0.1,0-0.1,0
	c-1.9,0-3.8,0.1-5.6,0.4c-1.2,0.1-2.5,0.1-3.7-0.1c-0.9-0.2-1.8-0.2-2.6-0.1c-0.5,0-0.8,0.4-0.9,0.9c-0.1,1.3-0.1,2.5-0.1,3.8
	c0.5,0.5,1,0.3,1.4,0.3c2-0.2,4.1-0.2,6.1,0.1c0.7,0.1,0.9,0.3,0.9,1c0,1.4,0,2.9-0.1,4.4c0,0.8-0.3,1-1.1,1.1
	c-0.9,0.1-1.9,0.1-2.8,0c-1.1,0-2.1-0.1-3.3-0.2c-0.8,0-1,0.2-1,1.1c0,3.7-0.4,7.5-0.1,11.2c0,0.3,0,0.6,0,0.9
	c0.1,0.5,0.3,0.8,0.8,0.9c2.1,0.3,4.2,0.4,6.3,0.3c1.4-0.1,2.8,0,4.1,0.1s1.4,0.1,1.7,1.6c0.2,0.9,0.2,1.9,0.1,2.9
	c0,0.8-0.3,1-1.1,1c-2.9,0.2-6,0.3-9,0.4c-2.3,0-4.5,0.2-6.7,0.6c-0.9,0.4-1.8-0.1-2.2-0.9c-0.1-0.3-0.2-0.6-0.1-0.9
	c0-1.3-0.2-2.6-0.1-3.9c0.2-2.4,0-4.8,0-7.2c0-1,0-2.1,0.3-3.1c0.1-0.5,0.2-1,0.2-1.5c0.1-3.3,0-6.6-0.3-9.9
	c-0.2-1.3-0.1-2.7-0.2-4.1c0-1.1-0.1-2.2-0.2-3.3c-0.1-1.1,0-2.2,0.3-3.2c0-0.5,0.4-0.8,0.9-0.8c1.7-0.1,3.3,0,5,0.2
	c1.4,0.3,2.9,0.3,4.3,0c0.8,0,1.6-0.2,2.4-0.4h-0.1C306.5,140.5,307.3,140.7,308.1,140.7z M294.4,154.3L294.4,154.3l0-0.1
	L294.4,154.3z M306.6,152.8v-0.1h-0.2L306.6,152.8z M309.7,173.8h0.1l-0.1-0.2L309.7,173.8z"/>
<path d="M318.6,159c0-1.3,0-2.7-0.2-4c-0.2-3.6-0.3-7.2-0.2-10.7c0-0.9,0-1.9,0-2.8c0-1.2,0.4-1.6,1.7-1.4c0.6,0.1,1.3-0.1,1.8,0.4
	c0.2,0.1,0.4,0.1,0.6,0c0.4-0.3,0.8-0.2,1,0.2c0.3,0.7,0.9,1.4,1.6,1.8c3.5,2.9,7.2,5.7,10.5,9c0.3,0.3,0.6,0.5,0.9,0.8
	c0.8,0.4,1.3,1.2,2.2,1.3c0.8-0.8,0.3-1.8,0.4-2.7c0.2-2.1,0.2-4.3-0.1-6.4c-0.1-0.5-0.1-1-0.1-1.4c0-3.1-0.3-2.7,2.9-2.9
	c0.2,0,0.5,0,0.7,0c1.2,0,2.3,1,2.3,2.2c0.2,3.5,0.4,7.1,0.7,10.7c0,0.2,0,0.5,0,0.8c-0.5,2.7,0.1,5.3,0.1,8s0.1,5.3,0.2,7.9
	s0.1,5.4,0.1,8.1c0.1,1.2,0,1.3-1.2,1.5s-2.2,0.2-3.3,0.3s-1.7-0.3-1.7-1.6c0-1.4-0.1-2.9,0-4.3c0.2-3.7-0.5-7.3-0.7-10.9
	c0-0.5-0.2-0.9-0.6-1.2c-2.9-2.4-5.6-5-8.7-7c-1.2-0.8-2.3-1.7-3.5-2.5c-0.3-0.3-0.7-0.6-1.1-0.9c-0.2-0.2-0.5-0.2-0.7,0.1
	c-0.1,0.1-0.1,0.2-0.1,0.3c-0.1,1.1-0.1,2.2,0.2,3.3c0.3,1.2,0.4,2.4,0.3,3.5c0,3.9,0,7.8,0,11.6c0.1,1.1-0.1,2.2-0.3,3.3
	c-0.2,1.2-0.2,2.4,0.1,3.5c0,0.6,0.1,1.3,0.1,1.9c-0.1,0.4-0.4,0.7-0.8,0.7c-0.4,0-0.8,0-1.2-0.1c-3.8-0.3-3-0.3-3.1-3.3
	s-0.3-6.1-0.4-8.8C318.4,164.7,318.4,161.8,318.6,159z M320.9,151.4h-0.1l0,0.2L320.9,151.4z M330.1,147.6c-0.2,0-0.2,0.1,0,0.2
	c0-0.1,0.1-0.1,0.2-0.1c-0.2-0.1-0.2-0.1-0.1,0.1C330.2,147.8,330.2,147.6,330.1,147.6L330.1,147.6z"/>
<path d="M362.2,163.2c0.3,3.5-0.2,7,0.5,10.4c0.2,0.8,0.1,1.6,0.2,2.4s-0.6,1.5-0.9,2.3c-0.1,0.1-0.2,0.2-0.3,0.3
	c-0.8,0.3-1.7,0.3-2.5,0.5c-0.5,0.2-1.3-0.3-1.9-0.6c-0.1-0.1-0.3-0.2-0.3-0.3c-0.3-0.8-0.4-1.6-0.4-2.5c0.4-2.8,0.2-5.6,0.4-8.4
	c0.1-2.3,0.1-4.7,0-7c-0.4-4,0-7.9-0.3-11.9l-0.2-1.6c0-0.5-0.3-0.8-0.8-0.7c-1.5,0.1-3,0.2-4.5,0.2c-0.5,0-1.3,0.4-1.6-0.1
	c-0.4-0.5-0.8-1.2-0.9-1.8V143c0-0.7,0-1.4-0.2-2.1c-0.2-0.6,0-0.8,0.6-0.9c1.6-0.2,3.1-0.2,4.7,0.1c1.3,0.2,2.7,0.2,4-0.1
	c1.1-0.3,2.3-0.4,3.4-0.4c1.8,0,3.6-0.2,5.4-0.1c4.1,0.2,3.9,0,3.8,4.1v0.5c-0.2,1.9-0.4,1.9-2.3,1.8c-1.6-0.1-3.3,0-4.9,0
	c-0.8,0-0.9,0.3-0.9,1.1v8.1C362.3,157.8,362.2,160.5,362.2,163.2z M359.8,146.4c0,0.1-0.1,0.2-0.1,0.4c0.1,0.2,0.2,0.2,0.2,0
	s0-0.3,0-0.4H359.8z"/>
<path d="M372.8,148.1c0-0.6-0.1-1.1-0.1-1.7c-0.1-0.5,0.2-1,0.7-1.1c0.3-0.1,0.5-0.3,0.9-0.4c1.7-1.1,3.3-2.4,4.5-4
	c0.7-0.9,1.9-1.3,3-1.2c2.1,0.1,4.2,0.1,6.3,0.1c0.6,0,1.2-0.1,1.6,0.8c0.2,0.5,0.8,0.9,1.2,1.2c1.8,1.3,3.3,2.8,5.2,4
	c0.5,0.3,0.8,0.8,0.7,1.4c0.3,4.3,0.6,8.7,0.5,13.1c-0.1,3.1,0.1,6.1,0.5,9.2c0.2,1.4-0.3,2.8-1.4,3.6c-2,1.7-3.8,3.6-5.4,5.6
	c-0.6,0.8-1.2,1.2-2.3,0.6c-0.5-0.3-1.2-0.1-1.9-0.1c-2,0-4,0.1-6.1,0.1c-0.6,0-1.2-0.3-1.6-0.9c-1.1-1.5-2.4-2.8-3.8-4
	c-0.5-0.3-0.9-0.7-1.2-1.2c-0.9-0.8-1.4-2-1.3-3.2c0.1-3.3-0.3-6.6,0.1-9.9C373.2,156,373.1,152.1,372.8,148.1z M385.3,171.8
	c1,0,2.1,0.2,3.1,0.3c0.8,0.1,1.1-0.2,0.9-1c-0.3-1.8-0.4-3.7-0.3-5.5c0.3-6-0.3-12-0.4-18c0-0.8-0.2-1-1-1
	c-1.9-0.1-3.9-0.1-5.8,0.1c-1.6,0-2.1,0.6-2,2v1c-0.1,4.2,0.2,8.4-0.4,12.6c-0.1,0.8-0.1,1.6,0,2.4c0.1,2.2,0.3,4.4,0.4,6.9
	C381.6,171.5,383.5,171.6,385.3,171.8L385.3,171.8z M388.5,143.4h-0.2l0.2,0.1V143.4z M391.8,175.2c-1,0.2-1.3,0.9-1.8,1.6
	C390.7,176.4,391.3,175.9,391.8,175.2L391.8,175.2z M390.7,146.7c-0.1,0-0.3,0-0.4,0.1c-0.1,0.3,0,0.4,0.3,0.5s0.3,0,0.3-0.2
	S390.9,146.7,390.7,146.7L390.7,146.7z"/>
<path class="st0" d="M208.8,121.5c-0.2-0.2-0.4-0.5-0.5-0.8c-0.1-0.2-0.3-0.5-0.4-0.7l-0.3-0.7c-0.1-0.2-0.3-0.4-0.4-0.7
	c-0.9-1.2-1.7-2.5-2.4-3.9c-0.8-1.4-1.4-2.8-2-4.2c-0.5-1.4-1-2.9-1.3-4.4c-0.3-1.4-0.4-2.8-0.3-4.2c0.1-1.1,0.3-2.2,0.8-3.3
	c0.4-0.9,0.9-1.7,1.7-2.4c0.7-0.6,1.6-1.1,2.5-1.3c1-0.3,2.1-0.4,3.2-0.2c1,0.1,1.9,0.4,2.8,0.8c0.9,0.5,1.8,1.1,2.6,1.7
	c0.8,0.7,1.6,1.5,2.4,2.3c0.8,0.8,1.5,1.6,2.2,2.4l2.2-2.4c0.8-0.8,1.5-1.6,2.4-2.3c0.8-0.7,1.6-1.2,2.5-1.7
	c0.8-0.5,1.8-0.7,2.7-0.8c2-0.3,4,0.3,5.5,1.6c1.4,1.5,2.2,3.5,2.3,5.6c0.1,1.4,0.1,2.8-0.2,4.2c-0.2,1.5-0.6,3-1.1,4.4
	c-0.5,1.5-1.1,2.9-1.9,4.2c-0.7,1.3-1.5,2.6-2.4,3.9l-1,1.4c-0.4,0.5-0.7,1-1.1,1.4l-1,1.4c-0.3,0.4-0.6,0.9-0.8,1.2
	c-0.6,1-1.1,1.9-1.7,2.7s-1.1,1.7-1.7,2.5c-0.1,0.2-0.3,0.5-0.6,0.8l-0.8,1.2c-0.3,0.6-0.6,1-0.9,1.5s-0.5,0.8-0.8,1.2
	c-0.3,0.3-0.6,0.6-0.9,0.9c-0.3,0.2-0.6,0.3-1,0.2c-0.3,0-0.7-0.1-0.9-0.4c-0.3-0.4-0.6-0.8-0.8-1.3c-0.3-0.6-0.6-1.2-1-1.7
	c-0.4-0.6-1-1.4-1.6-2.3l-0.7-0.9c-0.3-0.4-0.5-0.7-0.8-1.1s-0.6-0.7-0.9-1.1l-0.7-0.9C210.6,124.2,209.6,122.9,208.8,121.5z"/>
<path class="st1" d="M37,53h176.2h39.3h30c0.3,0.1,0.7,0.1,1,0c58.5,0.1,121.4,0,135.9-0.7c20.4-1.1,26.2-0.1,26.2-0.1
	c1.3,0.3,2.6-0.4,3-1.7c0.3-1.3-0.4-2.6-1.7-3c-0.1,0-0.2,0-0.3-0.1c-0.1,0-2.7-0.5-10.6-0.5c-4.1,0-9.5,0.1-16.8,0.5
	c-10.5,0.5-47,0.7-89.1,0.7l15.1-5.1c1.3-0.4,1.9-1.8,1.5-3.1c-0.3-1-1.3-1.6-2.3-1.6c-0.3,0-0.5,0-0.8,0.1L315.8,48
	c-0.2,0.1-0.3,0.1-0.4,0.2H292l33-19.8c1.1-0.7,1.5-2.1,0.9-3.3c-0.4-0.7-1.2-1.2-2.1-1.2c-0.4,0-0.9,0.1-1.2,0.4l-39.9,23.9h-20.7
	L293.7,9c0.9-0.9,0.9-2.5,0-3.4s-2.5-0.9-3.4,0c-0.1,0.1-0.2,0.3-0.3,0.4l-34.3,42.2h-11.1l0.1-40.8c0-1.3-1.1-2.4-2.4-2.4l0,0
	c-1.3,0-2.4,1.1-2.4,2.4l-0.1,40.8h-16.2L188.4,8.8c-0.5-0.5-1.1-0.8-1.8-0.8c-1.3,0-2.4,1.1-2.4,2.4c0,0.6,0.2,1.1,0.6,1.6
	L217,48.1h-18.5l-32.3-19.6c-0.4-0.2-0.8-0.3-1.2-0.3c-1.3,0-2.4,1.1-2.4,2.4c0,0.8,0.4,1.6,1.2,2.1l25.5,15.5h-26.8l-31.5-12.6
	c-1.3-0.5-2.7,0.1-3.2,1.3s0.1,2.7,1.3,3.2l20.3,8.2H37c-1.3,0-2.4,1.1-2.4,2.4C34.6,51.9,35.7,53,37,53z"/>
<path class="st1" d="M148.2,23.2l8.5,5.5c1.1,0.8,2.6,0.5,3.4-0.6c0.8-1.1,0.5-2.6-0.6-3.4c-0.1,0-0.1-0.1-0.2-0.1l-8.5-5.5
	c-0.4-0.2-0.8-0.4-1.2-0.4c-1.3,0-2.4,1.1-2.4,2.4C147.1,22,147.5,22.8,148.2,23.2z"/>
<path class="st1" d="M446.2,216.4H270c-10.4,0-24.1,0-39.4,0h-30c-0.3-0.1-0.7-0.1-1,0c-58.5-0.1-121.4,0-135.9,0.7
	c-20.4,1.1-26.2,0.1-26.2,0.1c-1.3-0.3-2.6,0.4-3,1.7c-0.3,1.3,0.4,2.6,1.7,3c0.1,0,0.2,0,0.3,0.1c0.2,0,2.7,0.5,10.6,0.5
	c4.1,0,9.5-0.1,16.8-0.5c10.5-0.6,48-0.7,90.2-0.8l-15.1,5c-1.3,0.4-1.9,1.8-1.5,3.1c0.3,1,1.3,1.6,2.3,1.6c0.3,0,0.5,0,0.8-0.1
	l27.9-9.4c0.2-0.1,0.3-0.2,0.4-0.2h23.4l-33,19.8c-1.1,0.7-1.5,2.1-0.9,3.3c0.4,0.7,1.2,1.2,2.1,1.2c0.4,0,0.9-0.1,1.2-0.3
	l39.9-23.9h20.7l-31.8,39.3c-0.9,0.9-0.9,2.5,0,3.4s2.5,0.9,3.4,0c0.1-0.1,0.2-0.3,0.3-0.4l34.3-42.3h11.1l-0.1,40.9
	c0,1.3,1.1,2.4,2.4,2.4l0,0c1.3,0,2.4-1.1,2.4-2.4l0.1-40.8h16.2l35.1,39.4c0.9,1,2.5,1,3.4,0.1c0.9-0.9,1-2.3,0.2-3.3l-32.2-36.1
	h18.5l40.9,24.9c0.4,0.2,0.8,0.4,1.2,0.4c1.3,0,2.4-1.1,2.4-2.5c0-0.8-0.4-1.5-1.1-2l-34.1-20.7h26.8l31.5,12.6
	c0.3,0.1,0.6,0.2,0.9,0.2c1.3,0,2.4-1.1,2.4-2.4c0-1-0.6-1.9-1.5-2.2l-20.3-8.2h111.3c1.3,0.1,2.5-0.9,2.6-2.3
	c0.1-1.3-0.9-2.5-2.3-2.6C446.4,216.4,446.3,216.4,446.2,216.4L446.2,216.4z"/>
</svg>
