<svg id="Infográfico" xmlns="http://www.w3.org/2000/svg" xmlns:xlink="http://www.w3.org/1999/xlink" viewBox="0 0 279.578 407.5">
  <defs>
    <style>
      .cls-1, .cls-8 {
        fill: #dc662e;
      }

      .cls-1, .cls-2, .cls-3, .cls-4, .cls-7 {
        opacity: 0.66;
      }

      .cls-11, .cls-2 {
        fill: #f6b60c;
      }

      .cls-10, .cls-3 {
        fill: #e79728;
      }

      .cls-4, .cls-9 {
        fill: #ea7d34;
      }

      .cls-5 {
        opacity: 0.87;
      }

      .cls-6 {
        font-size: 14.83px;
        font-family: Monrad-Bold, Monrad;
        font-weight: 700;
      }

      .cls-12 {
        fill: #f2f2f1;
      }

      .cls-13 {
        fill: #fff;
      }

      .cls-14 {
        fill: url(#linear-gradient);
      }

      .cls-15 {
        fill: url(#linear-gradient-2);
      }

      .cls-16 {
        fill: url(#linear-gradient-3);
      }

      .cls-17 {
        fill: url(#linear-gradient-4);
      }

      .cls-18 {
        fill: url(#linear-gradient-5);
      }

      .cls-19 {
        fill: url(#linear-gradient-6);
      }

      .cls-20 {
        fill: none;
        stroke: #414042;
        stroke-miterlimit: 10;
        stroke-width: 2.056px;
      }

      .cls-21 {
        fill: #e76a2b;
      }

      .cls-22 {
        fill: #cfd1d2;
      }
    </style>
    <linearGradient id="linear-gradient" x1="-37.208" y1="35.054" x2="-36.637" y2="34.628" gradientUnits="objectBoundingBox">
      <stop offset="0" stop-color="#f2f2f1" stop-opacity="0"/>
      <stop offset="0.345" stop-color="#e9e9e8" stop-opacity="0.345"/>
      <stop offset="0.905" stop-color="#d1d1d1" stop-opacity="0.906"/>
      <stop offset="1" stop-color="#ccc"/>
    </linearGradient>
    <linearGradient id="linear-gradient-2" x1="-34.698" y1="34.124" x2="-35.256" y2="34.528" xlink:href="#linear-gradient"/>
    <linearGradient id="linear-gradient-3" x1="-35.745" y1="37.048" x2="-35.174" y2="36.623" xlink:href="#linear-gradient"/>
    <linearGradient id="linear-gradient-4" x1="-33.235" y1="36.118" x2="-33.793" y2="36.523" xlink:href="#linear-gradient"/>
    <linearGradient id="linear-gradient-5" x1="-34.282" y1="39.043" x2="-33.711" y2="38.617" xlink:href="#linear-gradient"/>
    <linearGradient id="linear-gradient-6" x1="-31.772" y1="38.115" x2="-32.329" y2="38.52" xlink:href="#linear-gradient"/>
  </defs>
  <path id="Path_578" data-name="Path 578" class="cls-1" d="M142,341.6h23.5v-3.5H141.9C141.9,339.3,142,340.5,142,341.6Z"/>
  <circle id="Ellipse_2" data-name="Ellipse 2" class="cls-1" cx="4.3" cy="4.3" r="4.3" transform="translate(164.6 335.6)"/>
  <path id="Path_579" data-name="Path 579" class="cls-2" d="M142.6,71.3h23.5V67.8H142.5C142.5,69,142.6,70.2,142.6,71.3Z"/>
  <circle id="Ellipse_3" data-name="Ellipse 3" class="cls-2" cx="4.3" cy="4.3" r="4.3" transform="translate(165.2 65.3)"/>
  <path id="Path_580" data-name="Path 580" class="cls-3" d="M142.6,162.3h23.5v-3.5H142.5C142.5,159.9,142.6,161.1,142.6,162.3Z"/>
  <circle id="Ellipse_4" data-name="Ellipse 4" class="cls-3" cx="4.3" cy="4.3" r="4.3" transform="translate(165.2 156.2)"/>
  <path id="Path_581" data-name="Path 581" class="cls-4" d="M142.6,249.9h23.5v-3.5H142.5C142.5,247.6,142.6,248.8,142.6,249.9Z"/>
  <circle id="Ellipse_5" data-name="Ellipse 5" class="cls-4" cx="4.3" cy="4.3" r="4.3" transform="translate(165.2 243.9)"/>
  <g id="Group_615" data-name="Group 615" class="cls-5">
    <text id="TAXA_SUPER_COMPETITIVA" data-name="TAXA SUPER
COMPETITIVA" class="cls-6" transform="translate(182.469 338.132)"><tspan x="0" y="0">TAXA SUPER</tspan><tspan x="0" y="17.8">COMPETITIVA</tspan></text>
  </g>
  <g id="Group_616" data-name="Group 616" class="cls-5">
    <text id="ATENDIMENTO_FORA_DE_SÉRIE" data-name="ATENDIMENTO
FORA DE SÉRIE" class="cls-6" transform="translate(182.578 246.068)"><tspan x="0" y="0">ATENDIMENTO</tspan><tspan x="0" y="17.8">FORA DE SÉRIE</tspan></text>
  </g>
  <g id="Group_617" data-name="Group 617" class="cls-5">
    <text id="SISTEMA_IMBATÍVEL" data-name="SISTEMA
IMBATÍVEL" class="cls-6" transform="translate(182.468 65.282)"><tspan x="0" y="0">SISTEMA</tspan><tspan x="0" y="17.8">IMBATÍVEL</tspan></text>
  </g>
  <g id="Group_630" data-name="Group 630">
    <g id="Group_618" data-name="Group 618" class="cls-7">
      <path id="Path_582" data-name="Path 582" class="cls-8" d="M71.3,265A71.25,71.25,0,1,1,0,336.2,71.229,71.229,0,0,1,71.3,265Z"/>
      <path id="Path_583" data-name="Path 583" class="cls-9" d="M71.3,177.5A71.25,71.25,0,1,1,0,248.8,71.229,71.229,0,0,1,71.3,177.5Z"/>
      <path id="Path_584" data-name="Path 584" class="cls-10" d="M71.3,89.3A71.3,71.3,0,1,1,0,160.5,71.25,71.25,0,0,1,71.3,89.3Z"/>
      <path id="Path_585" data-name="Path 585" class="cls-11" d="M71.3,0A71.25,71.25,0,1,1,0,71.3,71.25,71.25,0,0,1,71.3,0Z"/>
    </g>
    <g id="Group_619" data-name="Group 619">
      <circle id="Ellipse_6" data-name="Ellipse 6" class="cls-12" cx="60.9" cy="60.9" r="60.9" transform="translate(9.6 9.9)"/>
      <circle id="Ellipse_7" data-name="Ellipse 7" class="cls-12" cx="60.9" cy="60.9" r="60.9" transform="translate(9.6 98.1)"/>
      <circle id="Ellipse_8" data-name="Ellipse 8" class="cls-12" cx="60.9" cy="60.9" r="60.9" transform="translate(9.6 187.8)"/>
      <circle id="Ellipse_9" data-name="Ellipse 9" class="cls-12" cx="60.9" cy="60.9" r="60.9" transform="translate(9.6 276)"/>
    </g>
    <g id="Group_628" data-name="Group 628">
      <g id="Group_621" data-name="Group 621">
        <circle id="Ellipse_10" data-name="Ellipse 10" class="cls-13" cx="28.2" cy="28.2" r="28.2" transform="translate(31.03 337.333) rotate(-45)"/>
        <g id="Group_620" data-name="Group 620">
          <circle id="Ellipse_11" data-name="Ellipse 11" class="cls-13" cx="28.2" cy="28.2" r="28.2" transform="translate(31.03 337.333) rotate(-45)"/>
          <circle id="Ellipse_12" data-name="Ellipse 12" class="cls-13" cx="28.1" cy="28.1" r="28.1" transform="translate(35.984 356.251) rotate(-73.388)"/>
          <circle id="Ellipse_13" data-name="Ellipse 13" class="cls-13" cx="28" cy="28" r="28" transform="matrix(0.373, -0.928, 0.928, 0.373, 34.519, 352.868)"/>
          <circle id="Ellipse_14" data-name="Ellipse 14" class="cls-13" cx="27.9" cy="27.9" r="27.9" transform="matrix(0.506, -0.863, 0.863, 0.506, 32.757, 347.298)"/>
          <circle id="Ellipse_15" data-name="Ellipse 15" class="cls-13" cx="27.7" cy="27.7" r="27.7" transform="matrix(0.68, -0.733, 0.733, 0.68, 31.76, 338.809)"/>
          <circle id="Ellipse_16" data-name="Ellipse 16" class="cls-13" cx="27.6" cy="27.6" r="27.6" transform="translate(32.606 329.811) rotate(-33.882)"/>
          <circle id="Ellipse_17" data-name="Ellipse 17" class="cls-13" cx="27.5" cy="27.5" r="27.5" transform="translate(34.569 323.469) rotate(-24.122)"/>
          <circle id="Ellipse_18" data-name="Ellipse 18" class="cls-13" cx="27.4" cy="27.4" r="27.4" transform="translate(36.383 319.732) rotate(-17.998)"/>
          <circle id="Ellipse_19" data-name="Ellipse 19" class="cls-13" cx="27.3" cy="27.3" r="27.3" transform="translate(37.76 317.487) rotate(-14.129)"/>
          <circle id="Ellipse_20" data-name="Ellipse 20" class="cls-13" cx="27.2" cy="27.2" r="27.2" transform="translate(38.794 316.093) rotate(-11.549)"/>
          <circle id="Ellipse_21" data-name="Ellipse 21" class="cls-13" cx="27.1" cy="27.1" r="27.1" transform="translate(39.605 315.183) rotate(-9.735)"/>
          <circle id="Ellipse_22" data-name="Ellipse 22" class="cls-13" cx="26.9" cy="26.9" r="26.9" transform="translate(40.366 314.633) rotate(-8.401)"/>
          <circle id="Ellipse_23" data-name="Ellipse 23" class="cls-13" cx="26.8" cy="26.8" r="26.8" transform="translate(40.869 314.166) rotate(-7.377)"/>
          <circle id="Ellipse_24" data-name="Ellipse 24" class="cls-13" cx="26.7" cy="26.7" r="26.7" transform="matrix(0.993, -0.115, 0.115, 0.993, 41.314, 313.832)"/>
          <circle id="Ellipse_25" data-name="Ellipse 25" class="cls-13" cx="26.6" cy="26.6" r="26.6" transform="translate(41.707 313.607) rotate(-5.929)"/>
          <circle id="Ellipse_26" data-name="Ellipse 26" class="cls-13" cx="26.5" cy="26.5" r="26.5" transform="matrix(0.996, -0.094, 0.094, 0.996, 42.027, 313.422)"/>
          <path id="Path_586" data-name="Path 586" class="cls-13" d="M97.3,337.3a26.4,26.4,0,1,1-26.4-26.4A26.375,26.375,0,0,1,97.3,337.3Z"/>
          <path id="Path_587" data-name="Path 587" class="cls-13" d="M97.2,337.3A26.3,26.3,0,1,1,70.9,311,26.332,26.332,0,0,1,97.2,337.3Z"/>
          <path id="Path_588" data-name="Path 588" class="cls-13" d="M97.1,337.3a26.2,26.2,0,1,1-26.2-26.2A26.225,26.225,0,0,1,97.1,337.3Z"/>
          <path id="Path_589" data-name="Path 589" class="cls-13" d="M97,337.3a26,26,0,1,1-26-26A26.012,26.012,0,0,1,97,337.3Z"/>
          <path id="Path_590" data-name="Path 590" class="cls-13" d="M96.9,337.3A25.9,25.9,0,1,1,71,311.4,25.905,25.905,0,0,1,96.9,337.3Z"/>
          <path id="Path_591" data-name="Path 591" class="cls-13" d="M96.8,337.3A25.8,25.8,0,1,1,71,311.5,25.863,25.863,0,0,1,96.8,337.3Z"/>
          <path id="Path_592" data-name="Path 592" class="cls-13" d="M96.7,337.3A25.7,25.7,0,1,1,71,311.6,25.692,25.692,0,0,1,96.7,337.3Z"/>
          <path id="Path_593" data-name="Path 593" class="cls-13" d="M96.5,337.3a25.6,25.6,0,1,1-25.6-25.6A25.649,25.649,0,0,1,96.5,337.3Z"/>
          <path id="Path_594" data-name="Path 594" class="cls-13" d="M96.4,337.3a25.5,25.5,0,1,1-25.5-25.5A25.479,25.479,0,0,1,96.4,337.3Z"/>
          <path id="Path_595" data-name="Path 595" class="cls-13" d="M96.3,337.3a25.4,25.4,0,1,1-25.4-25.4A25.436,25.436,0,0,1,96.3,337.3Z"/>
          <path id="Path_596" data-name="Path 596" class="cls-13" d="M96.2,337.3A25.3,25.3,0,1,1,70.9,312,25.329,25.329,0,0,1,96.2,337.3Z"/>
          <path id="Path_597" data-name="Path 597" class="cls-13" d="M96.1,337.3A25.1,25.1,0,1,1,71,312.2,25.116,25.116,0,0,1,96.1,337.3Z"/>
          <path id="Path_598" data-name="Path 598" class="cls-13" d="M96,337.3a25,25,0,1,1-25-25A25.009,25.009,0,0,1,96,337.3Z"/>
          <path id="Path_599" data-name="Path 599" class="cls-13" d="M95.9,337.3a24.95,24.95,0,1,1-25-24.9A24.967,24.967,0,0,1,95.9,337.3Z"/>
          <path id="Path_600" data-name="Path 600" class="cls-13" d="M95.7,337.3a24.8,24.8,0,1,1-24.8-24.8A24.8,24.8,0,0,1,95.7,337.3Z"/>
          <path id="Path_601" data-name="Path 601" class="cls-13" d="M95.6,337.3a24.7,24.7,0,1,1-24.7-24.7A24.753,24.753,0,0,1,95.6,337.3Z"/>
        </g>
      </g>
      <g id="Group_623" data-name="Group 623">
        <circle id="Ellipse_27" data-name="Ellipse 27" class="cls-13" cx="28.2" cy="28.2" r="28.2" transform="translate(42.6 220.5)"/>
        <g id="Group_622" data-name="Group 622">
          <circle id="Ellipse_28" data-name="Ellipse 28" class="cls-13" cx="28.2" cy="28.2" r="28.2" transform="translate(42.6 220.5)"/>
          <circle id="Ellipse_29" data-name="Ellipse 29" class="cls-13" cx="28.1" cy="28.1" r="28.1" transform="translate(42.557 276.622) rotate(-89.637)"/>
          <circle id="Ellipse_30" data-name="Ellipse 30" class="cls-13" cx="28" cy="28" r="28" transform="translate(42.448 276.316) rotate(-89.216)"/>
          <circle id="Ellipse_31" data-name="Ellipse 31" class="cls-13" cx="27.9" cy="27.9" r="27.9" transform="translate(42.325 275.97) rotate(-88.721)"/>
          <circle id="Ellipse_32" data-name="Ellipse 32" class="cls-13" cx="27.7" cy="27.7" r="27.7" transform="matrix(0.033, -0.999, 0.999, 0.033, 42.249, 275.484)"/>
          <path id="Path_602" data-name="Path 602" class="cls-13" d="M98.4,248.7a27.6,27.6,0,1,1-27.6-27.6A27.591,27.591,0,0,1,98.4,248.7Z"/>
          <path id="Path_603" data-name="Path 603" class="cls-13" d="M98.3,248.7a27.5,27.5,0,1,1-27.5-27.5A27.484,27.484,0,0,1,98.3,248.7Z"/>
          <path id="Path_604" data-name="Path 604" class="cls-13" d="M98.2,248.7a27.4,27.4,0,1,1-27.4-27.4A27.442,27.442,0,0,1,98.2,248.7Z"/>
          <path id="Path_605" data-name="Path 605" class="cls-13" d="M98.1,248.7a27.3,27.3,0,1,1-27.3-27.3A27.271,27.271,0,0,1,98.1,248.7Z"/>
          <path id="Path_606" data-name="Path 606" class="cls-13" d="M98,248.7a27.2,27.2,0,1,1-27.2-27.2A27.228,27.228,0,0,1,98,248.7Z"/>
          <path id="Path_607" data-name="Path 607" class="cls-13" d="M97.9,248.7a27.1,27.1,0,1,1-27.1-27.1A27.122,27.122,0,0,1,97.9,248.7Z"/>
          <path id="Path_608" data-name="Path 608" class="cls-13" d="M97.8,248.7a26.95,26.95,0,1,1-27-26.9A26.93,26.93,0,0,1,97.8,248.7Z"/>
          <path id="Path_609" data-name="Path 609" class="cls-13" d="M97.7,248.7a26.8,26.8,0,1,1-26.8-26.8A26.8,26.8,0,0,1,97.7,248.7Z"/>
          <path id="Path_610" data-name="Path 610" class="cls-13" d="M97.5,248.7A26.7,26.7,0,1,1,70.8,222,26.695,26.695,0,0,1,97.5,248.7Z"/>
          <path id="Path_611" data-name="Path 611" class="cls-13" d="M97.4,248.7a26.6,26.6,0,1,1-26.6-26.6A26.588,26.588,0,0,1,97.4,248.7Z"/>
          <path id="Path_612" data-name="Path 612" class="cls-13" d="M97.3,248.7a26.5,26.5,0,1,1-26.5-26.5A26.546,26.546,0,0,1,97.3,248.7Z"/>
          <path id="Path_613" data-name="Path 613" class="cls-13" d="M97.2,248.7a26.4,26.4,0,1,1-26.4-26.4A26.375,26.375,0,0,1,97.2,248.7Z"/>
          <path id="Path_614" data-name="Path 614" class="cls-13" d="M97.1,248.7a26.3,26.3,0,1,1-26.3-26.3A26.332,26.332,0,0,1,97.1,248.7Z"/>
          <path id="Path_615" data-name="Path 615" class="cls-13" d="M97,248.7a26.2,26.2,0,1,1-26.2-26.2A26.225,26.225,0,0,1,97,248.7Z"/>
          <path id="Path_616" data-name="Path 616" class="cls-13" d="M96.9,248.7a26,26,0,1,1-26-26A26.012,26.012,0,0,1,96.9,248.7Z"/>
          <path id="Path_617" data-name="Path 617" class="cls-13" d="M96.7,248.7a25.9,25.9,0,1,1-25.9-25.9A25.905,25.905,0,0,1,96.7,248.7Z"/>
          <path id="Path_618" data-name="Path 618" class="cls-13" d="M96.6,248.7a25.8,25.8,0,1,1-25.8-25.8A25.863,25.863,0,0,1,96.6,248.7Z"/>
          <path id="Path_619" data-name="Path 619" class="cls-13" d="M96.5,248.7A25.7,25.7,0,1,1,70.8,223,25.692,25.692,0,0,1,96.5,248.7Z"/>
          <path id="Path_620" data-name="Path 620" class="cls-13" d="M96.4,248.7a25.6,25.6,0,1,1-25.6-25.6A25.649,25.649,0,0,1,96.4,248.7Z"/>
          <path id="Path_621" data-name="Path 621" class="cls-13" d="M96.3,248.7a25.5,25.5,0,1,1-25.5-25.5A25.479,25.479,0,0,1,96.3,248.7Z"/>
          <path id="Path_622" data-name="Path 622" class="cls-13" d="M96.2,248.7a25.4,25.4,0,1,1-25.4-25.4A25.436,25.436,0,0,1,96.2,248.7Z"/>
          <path id="Path_623" data-name="Path 623" class="cls-13" d="M96.1,248.7a25.3,25.3,0,1,1-25.3-25.3A25.329,25.329,0,0,1,96.1,248.7Z"/>
          <path id="Path_624" data-name="Path 624" class="cls-13" d="M96,248.7a25.1,25.1,0,1,1-25.1-25.1A25.116,25.116,0,0,1,96,248.7Z"/>
          <path id="Path_625" data-name="Path 625" class="cls-13" d="M95.8,248.7a25,25,0,1,1-25-25A25.009,25.009,0,0,1,95.8,248.7Z"/>
          <path id="Path_626" data-name="Path 626" class="cls-13" d="M95.7,248.7a24.9,24.9,0,1,1-24.9-24.9A24.967,24.967,0,0,1,95.7,248.7Z"/>
          <path id="Path_627" data-name="Path 627" class="cls-13" d="M95.6,248.7a24.8,24.8,0,1,1-24.8-24.8A24.8,24.8,0,0,1,95.6,248.7Z"/>
          <path id="Path_628" data-name="Path 628" class="cls-13" d="M95.5,248.7A24.7,24.7,0,1,1,70.8,224,24.753,24.753,0,0,1,95.5,248.7Z"/>
        </g>
      </g>
      <g id="Group_625" data-name="Group 625">
        <circle id="Ellipse_33" data-name="Ellipse 33" class="cls-13" cx="28.2" cy="28.2" r="28.2" transform="translate(36.65 138.976) rotate(-13.344)"/>
        <g id="Group_624" data-name="Group 624">
          <circle id="Ellipse_34" data-name="Ellipse 34" class="cls-13" cx="28.2" cy="28.2" r="28.2" transform="translate(36.65 138.976) rotate(-13.344)"/>
          <circle id="Ellipse_35" data-name="Ellipse 35" class="cls-13" cx="28.1" cy="28.1" r="28.1" transform="matrix(0.535, -0.845, 0.845, 0.535, 31.835, 168.634)"/>
          <circle id="Ellipse_36" data-name="Ellipse 36" class="cls-13" cx="28" cy="28" r="28" transform="translate(33.855 174.672) rotate(-66.871)"/>
          <circle id="Ellipse_37" data-name="Ellipse 37" class="cls-13" cx="27.9" cy="27.9" r="27.9" transform="translate(35.642 178.215) rotate(-72.62)"/>
          <circle id="Ellipse_38" data-name="Ellipse 38" class="cls-13" cx="27.7" cy="27.7" r="27.7" transform="translate(37.123 180.263) rotate(-76.272)"/>
          <circle id="Ellipse_39" data-name="Ellipse 39" class="cls-13" cx="27.6" cy="27.6" r="27.6" transform="matrix(0.196, -0.981, 0.981, 0.196, 38.147, 181.598)"/>
          <circle id="Ellipse_40" data-name="Ellipse 40" class="cls-13" cx="27.5" cy="27.5" r="27.5" transform="translate(38.939 182.494) rotate(-80.462)"/>
          <circle id="Ellipse_41" data-name="Ellipse 41" class="cls-13" cx="27.4" cy="27.4" r="27.4" transform="translate(39.571 183.112) rotate(-81.75)"/>
          <circle id="Ellipse_42" data-name="Ellipse 42" class="cls-13" cx="27.3" cy="27.3" r="27.3" transform="translate(40.083 183.555) rotate(-82.739)"/>
          <circle id="Ellipse_43" data-name="Ellipse 43" class="cls-13" cx="27.2" cy="27.2" r="27.2" transform="translate(40.515 183.883) rotate(-83.517)"/>
          <circle id="Ellipse_44" data-name="Ellipse 44" class="cls-13" cx="27.1" cy="27.1" r="27.1" transform="matrix(0.102, -0.995, 0.995, 0.102, 40.89, 184.116)"/>
          <circle id="Ellipse_45" data-name="Ellipse 45" class="cls-13" cx="26.9" cy="26.9" r="26.9" transform="matrix(0.093, -0.996, 0.996, 0.093, 41.332, 184.208)"/>
          <circle id="Ellipse_46" data-name="Ellipse 46" class="cls-13" cx="26.8" cy="26.8" r="26.8" transform="matrix(0.085, -0.996, 0.996, 0.085, 41.629, 184.338)"/>
          <circle id="Ellipse_47" data-name="Ellipse 47" class="cls-13" cx="26.7" cy="26.7" r="26.7" transform="translate(41.891 184.434) rotate(-85.476)"/>
          <circle id="Ellipse_48" data-name="Ellipse 48" class="cls-13" cx="26.6" cy="26.6" r="26.6" transform="translate(42.132 184.502) rotate(-85.795)"/>
          <circle id="Ellipse_49" data-name="Ellipse 49" class="cls-13" cx="26.5" cy="26.5" r="26.5" transform="translate(42.366 184.545) rotate(-86.072)"/>
          <path id="Path_629" data-name="Path 629" class="cls-13" d="M97,159.9a26.4,26.4,0,1,1-26.4-26.4A26.375,26.375,0,0,1,97,159.9Z"/>
          <path id="Path_630" data-name="Path 630" class="cls-13" d="M96.9,159.9a26.3,26.3,0,1,1-26.3-26.3A26.332,26.332,0,0,1,96.9,159.9Z"/>
          <path id="Path_631" data-name="Path 631" class="cls-13" d="M96.8,159.9a26.2,26.2,0,1,1-26.2-26.2A26.225,26.225,0,0,1,96.8,159.9Z"/>
          <path id="Path_632" data-name="Path 632" class="cls-13" d="M96.7,159.9a26,26,0,1,1-26-26A26.012,26.012,0,0,1,96.7,159.9Z"/>
          <path id="Path_633" data-name="Path 633" class="cls-13" d="M96.6,159.9A25.9,25.9,0,1,1,70.7,134,25.905,25.905,0,0,1,96.6,159.9Z"/>
          <path id="Path_634" data-name="Path 634" class="cls-13" d="M96.4,159.9a25.8,25.8,0,1,1-25.8-25.8A25.863,25.863,0,0,1,96.4,159.9Z"/>
          <path id="Path_635" data-name="Path 635" class="cls-13" d="M96.3,159.9a25.7,25.7,0,1,1-25.7-25.7A25.692,25.692,0,0,1,96.3,159.9Z"/>
          <path id="Path_636" data-name="Path 636" class="cls-13" d="M96.2,159.9a25.6,25.6,0,1,1-25.6-25.6A25.649,25.649,0,0,1,96.2,159.9Z"/>
          <path id="Path_637" data-name="Path 637" class="cls-13" d="M96.1,159.9a25.5,25.5,0,1,1-25.5-25.5A25.479,25.479,0,0,1,96.1,159.9Z"/>
          <path id="Path_638" data-name="Path 638" class="cls-13" d="M96,159.9a25.4,25.4,0,1,1-25.4-25.4A25.436,25.436,0,0,1,96,159.9Z"/>
          <path id="Path_639" data-name="Path 639" class="cls-13" d="M95.9,159.9a25.3,25.3,0,1,1-25.3-25.3A25.329,25.329,0,0,1,95.9,159.9Z"/>
          <path id="Path_640" data-name="Path 640" class="cls-13" d="M95.8,159.9a25.1,25.1,0,1,1-25.1-25.1A25.116,25.116,0,0,1,95.8,159.9Z"/>
          <path id="Path_641" data-name="Path 641" class="cls-13" d="M95.6,159.9a25,25,0,1,1-25-25A25.009,25.009,0,0,1,95.6,159.9Z"/>
          <path id="Path_642" data-name="Path 642" class="cls-13" d="M95.5,159.9A24.9,24.9,0,1,1,70.6,135,24.967,24.967,0,0,1,95.5,159.9Z"/>
          <path id="Path_643" data-name="Path 643" class="cls-13" d="M95.4,159.9a24.8,24.8,0,1,1-24.8-24.8A24.8,24.8,0,0,1,95.4,159.9Z"/>
          <path id="Path_644" data-name="Path 644" class="cls-13" d="M95.3,159.9a24.7,24.7,0,1,1-24.7-24.7A24.753,24.753,0,0,1,95.3,159.9Z"/>
        </g>
      </g>
      <g id="Group_627" data-name="Group 627">
        <circle id="Ellipse_50" data-name="Ellipse 50" class="cls-13" cx="28.2" cy="28.2" r="28.2" transform="translate(30.443 71.082) rotate(-45)"/>
        <g id="Group_626" data-name="Group 626">
          <circle id="Ellipse_51" data-name="Ellipse 51" class="cls-13" cx="28.2" cy="28.2" r="28.2" transform="translate(30.443 71.082) rotate(-45)"/>
          <circle id="Ellipse_52" data-name="Ellipse 52" class="cls-13" cx="28.1" cy="28.1" r="28.1" transform="translate(35.372 89.958) rotate(-73.388)"/>
          <circle id="Ellipse_53" data-name="Ellipse 53" class="cls-13" cx="28" cy="28" r="28" transform="matrix(0.373, -0.928, 0.928, 0.373, 33.908, 86.601)"/>
          <circle id="Ellipse_54" data-name="Ellipse 54" class="cls-13" cx="27.9" cy="27.9" r="27.9" transform="matrix(0.506, -0.863, 0.863, 0.506, 32.15, 81.021)"/>
          <circle id="Ellipse_55" data-name="Ellipse 55" class="cls-13" cx="27.7" cy="27.7" r="27.7" transform="matrix(0.68, -0.733, 0.733, 0.68, 31.178, 72.551)"/>
          <circle id="Ellipse_56" data-name="Ellipse 56" class="cls-13" cx="27.6" cy="27.6" r="27.6" transform="translate(32.021 63.564) rotate(-33.882)"/>
          <circle id="Ellipse_57" data-name="Ellipse 57" class="cls-13" cx="27.5" cy="27.5" r="27.5" transform="translate(33.979 57.234) rotate(-24.122)"/>
          <circle id="Ellipse_58" data-name="Ellipse 58" class="cls-13" cx="27.4" cy="27.4" r="27.4" transform="translate(35.788 53.503) rotate(-17.998)"/>
          <circle id="Ellipse_59" data-name="Ellipse 59" class="cls-13" cx="27.3" cy="27.3" r="27.3" transform="translate(37.169 51.284) rotate(-14.129)"/>
          <circle id="Ellipse_60" data-name="Ellipse 60" class="cls-13" cx="27.2" cy="27.2" r="27.2" transform="translate(38.209 49.893) rotate(-11.549)"/>
          <circle id="Ellipse_61" data-name="Ellipse 61" class="cls-13" cx="27.1" cy="27.1" r="27.1" transform="translate(39.014 48.971) rotate(-9.735)"/>
          <circle id="Ellipse_62" data-name="Ellipse 62" class="cls-13" cx="26.9" cy="26.9" r="26.9" transform="translate(39.767 48.417) rotate(-8.401)"/>
          <circle id="Ellipse_63" data-name="Ellipse 63" class="cls-13" cx="26.8" cy="26.8" r="26.8" transform="translate(40.283 47.963) rotate(-7.377)"/>
          <circle id="Ellipse_64" data-name="Ellipse 64" class="cls-13" cx="26.7" cy="26.7" r="26.7" transform="matrix(0.993, -0.115, 0.115, 0.993, 40.721, 47.631)"/>
          <circle id="Ellipse_65" data-name="Ellipse 65" class="cls-13" cx="26.6" cy="26.6" r="26.6" transform="translate(41.103 47.389) rotate(-5.929)"/>
          <circle id="Ellipse_66" data-name="Ellipse 66" class="cls-13" cx="26.5" cy="26.5" r="26.5" transform="matrix(0.996, -0.094, 0.094, 0.996, 41.431, 47.209)"/>
          <path id="Path_645" data-name="Path 645" class="cls-13" d="M96.7,71.1A26.4,26.4,0,1,1,70.3,44.7,26.375,26.375,0,0,1,96.7,71.1Z"/>
          <path id="Path_646" data-name="Path 646" class="cls-13" d="M96.6,71.1A26.3,26.3,0,1,1,70.3,44.8,26.332,26.332,0,0,1,96.6,71.1Z"/>
          <path id="Path_647" data-name="Path 647" class="cls-13" d="M96.4,71.1A26.2,26.2,0,1,1,70.2,44.9,26.225,26.225,0,0,1,96.4,71.1Z"/>
          <path id="Path_648" data-name="Path 648" class="cls-13" d="M96.3,71.1a26,26,0,1,1-26-26A26.012,26.012,0,0,1,96.3,71.1Z"/>
          <path id="Path_649" data-name="Path 649" class="cls-13" d="M96.2,71.1A25.9,25.9,0,1,1,70.3,45.2,25.905,25.905,0,0,1,96.2,71.1Z"/>
          <path id="Path_650" data-name="Path 650" class="cls-13" d="M96.1,71.1A25.8,25.8,0,1,1,70.3,45.3,25.863,25.863,0,0,1,96.1,71.1Z"/>
          <path id="Path_651" data-name="Path 651" class="cls-13" d="M96,71.1A25.7,25.7,0,1,1,70.3,45.4,25.692,25.692,0,0,1,96,71.1Z"/>
          <path id="Path_652" data-name="Path 652" class="cls-13" d="M95.9,71.1A25.6,25.6,0,1,1,70.3,45.5,25.649,25.649,0,0,1,95.9,71.1Z"/>
          <path id="Path_653" data-name="Path 653" class="cls-13" d="M95.8,71.1A25.5,25.5,0,1,1,70.3,45.6,25.479,25.479,0,0,1,95.8,71.1Z"/>
          <path id="Path_654" data-name="Path 654" class="cls-13" d="M95.7,71.1A25.4,25.4,0,1,1,70.3,45.7,25.436,25.436,0,0,1,95.7,71.1Z"/>
          <path id="Path_655" data-name="Path 655" class="cls-13" d="M95.5,71.1A25.25,25.25,0,1,1,70.3,45.8,25.329,25.329,0,0,1,95.5,71.1Z"/>
          <path id="Path_656" data-name="Path 656" class="cls-13" d="M95.4,71.1A25.1,25.1,0,1,1,70.3,46,25.116,25.116,0,0,1,95.4,71.1Z"/>
          <path id="Path_657" data-name="Path 657" class="cls-13" d="M95.3,71.1a25,25,0,1,1-25-25A25.009,25.009,0,0,1,95.3,71.1Z"/>
          <path id="Path_658" data-name="Path 658" class="cls-13" d="M95.2,71.1A24.9,24.9,0,1,1,70.3,46.2,24.967,24.967,0,0,1,95.2,71.1Z"/>
          <path id="Path_659" data-name="Path 659" class="cls-13" d="M95.1,71.1A24.8,24.8,0,1,1,70.3,46.3,24.8,24.8,0,0,1,95.1,71.1Z"/>
          <path id="Path_660" data-name="Path 660" class="cls-13" d="M95,71.1A24.7,24.7,0,1,1,70.3,46.4,24.753,24.753,0,0,1,95,71.1Z"/>
        </g>
      </g>
    </g>
    <g id="Group_629" data-name="Group 629">
      <path id="Path_661" data-name="Path 661" class="cls-12" d="M10,337.5H42.7a28,28,0,1,1,56,0h32.7a60.7,60.7,0,1,0-121.4,0Z"/>
      <path id="Path_662" data-name="Path 662" class="cls-12" d="M29.1,293.1a60.481,60.481,0,0,0,41.4,16.3h.3a28.086,28.086,0,0,1,27.7,28h32.7A60.532,60.532,0,0,0,111.9,293h0a60.481,60.481,0,0,0-41.4-16.3,28.082,28.082,0,0,1-28-28H9.8A60.743,60.743,0,0,0,29.1,293.1Z"/>
      <path id="Path_663" data-name="Path 663" class="cls-14" d="M98.5,337.5h32.7a60.532,60.532,0,0,0-19.3-44.4,60.481,60.481,0,0,1-41.4,16.3A28.1,28.1,0,0,1,98.5,337.5Z"/>
      <path id="Path_664" data-name="Path 664" class="cls-15" d="M42.5,248.8H9.8a60.532,60.532,0,0,0,19.3,44.4,60.293,60.293,0,0,1,41.4-16.4A28.082,28.082,0,0,1,42.5,248.8Z"/>
      <path id="Path_665" data-name="Path 665" class="cls-12" d="M70.8,276.8h-.3A60.355,60.355,0,0,0,10,337.5H42.5a28.082,28.082,0,0,1,28-28,60.668,60.668,0,0,0,41.4-16.3h0a60.532,60.532,0,0,0,19.3-44.4H98.5A28.085,28.085,0,0,1,70.8,276.8Z"/>
      <path id="Path_666" data-name="Path 666" class="cls-12" d="M9.8,248.8H42.5a28,28,0,0,1,56,0h32.7a60.7,60.7,0,0,0-121.4,0Z"/>
      <path id="Path_667" data-name="Path 667" class="cls-12" d="M29,204.4a60.667,60.667,0,0,0,41.4,16.3h.3a28.086,28.086,0,0,1,27.7,28h32.7a60.532,60.532,0,0,0-19.3-44.4h0A60.481,60.481,0,0,0,70.4,188a28.082,28.082,0,0,1-28-28H9.7A60.532,60.532,0,0,0,29,204.4Z"/>
      <path id="Path_668" data-name="Path 668" class="cls-16" d="M98.4,248.8h32.7a60.532,60.532,0,0,0-19.3-44.4,60.481,60.481,0,0,1-41.4,16.3A28.1,28.1,0,0,1,98.4,248.8Z"/>
      <path id="Path_669" data-name="Path 669" class="cls-17" d="M42.4,160.1H9.7A60.532,60.532,0,0,0,29,204.5a60.667,60.667,0,0,1,41.4-16.3A28.168,28.168,0,0,1,42.4,160.1Z"/>
      <path id="Path_670" data-name="Path 670" class="cls-13" d="M71,187.5h-.3A60.683,60.683,0,0,0,10,248.2H42.7a28.082,28.082,0,0,1,28-28,60.667,60.667,0,0,0,41.4-16.3h0a60.532,60.532,0,0,0,19.3-44.4H98.7A28.02,28.02,0,0,1,71,187.5Z"/>
      <path id="Path_671" data-name="Path 671" class="cls-12" d="M70.7,188.1h-.3A60.519,60.519,0,0,0,9.8,248.8H42.3a28.082,28.082,0,0,1,28-28,60.667,60.667,0,0,0,41.4-16.3h0A60.532,60.532,0,0,0,131,160.1H98.4A28.086,28.086,0,0,1,70.7,188.1Z"/>
      <path id="Path_672" data-name="Path 672" class="cls-12" d="M9.7,160.1H42.4a28,28,0,0,1,56,0h32.7a60.7,60.7,0,0,0-121.4,0Z"/>
      <path id="Path_673" data-name="Path 673" class="cls-13" d="M9.8,70.8H42.5a28,28,0,0,1,56,0h32.7a60.7,60.7,0,1,0-121.4,0Z"/>
      <path id="Path_674" data-name="Path 674" class="cls-12" d="M28.9,115.7A60.481,60.481,0,0,0,70.3,132h.3a28.086,28.086,0,0,1,27.7,28H131a60.532,60.532,0,0,0-19.3-44.4h0A60.481,60.481,0,0,0,70.3,99.3a28.082,28.082,0,0,1-28-28H9.6A60.532,60.532,0,0,0,28.9,115.7Z"/>
      <path id="Path_675" data-name="Path 675" class="cls-18" d="M98.3,160.1H131a60.532,60.532,0,0,0-19.3-44.4A60.854,60.854,0,0,1,70.3,132,28.1,28.1,0,0,1,98.3,160.1Z"/>
      <path id="Path_676" data-name="Path 676" class="cls-19" d="M42.2,71.3H9.6a60.532,60.532,0,0,0,19.3,44.4A60.481,60.481,0,0,1,70.3,99.4,28.125,28.125,0,0,1,42.2,71.3Z"/>
      <path id="Path_677" data-name="Path 677" class="cls-13" d="M70.8,98.8h-.3A60.683,60.683,0,0,0,9.8,159.5H42.5a28.082,28.082,0,0,1,28-28,60.667,60.667,0,0,0,41.4-16.3h0a60.532,60.532,0,0,0,19.3-44.4H98.5A28.086,28.086,0,0,1,70.8,98.8Z"/>
      <path id="Path_678" data-name="Path 678" class="cls-12" d="M70.5,99.4h-.3A60.355,60.355,0,0,0,9.7,160.1H42.2a28.082,28.082,0,0,1,28-28,60.667,60.667,0,0,0,41.4-16.3h0a60.532,60.532,0,0,0,19.3-44.4H98.3A28.105,28.105,0,0,1,70.5,99.4Z"/>
      <path id="Path_679" data-name="Path 679" class="cls-12" d="M9.6,71.3H42.3a28,28,0,0,1,56,0H131a60.7,60.7,0,1,0-121.4,0Z"/>
      <path id="Path_680" data-name="Path 680" class="cls-12" d="M70.7,365.5a28.082,28.082,0,0,1-28-28H10a60.7,60.7,0,1,0,121.4,0H98.7A28.082,28.082,0,0,1,70.7,365.5Z"/>
    </g>
    <g id="XMLID_85_">
      <path id="XMLID_108_" class="cls-20" d="M61.7,334.1c-9.2-2.2-7.9-9.2-7.9-9.2h6"/>
      <path id="XMLID_107_" class="cls-20" d="M78.8,334.1c9.2-2.2,7.9-9.2,7.9-9.2h-6"/>
      <path id="XMLID_106_" class="cls-11" d="M80.8,326.5a14.891,14.891,0,0,0-.7-4.3H60.4a14.891,14.891,0,0,0-.7,4.3c0,6.3,4.1,12.5,9.3,13.4v8.4h2.4v-8.4C76.7,339,80.8,332.8,80.8,326.5Z"/>
      <path id="XMLID_105_" class="cls-13" d="M69.6,339.9c-4.9-1.3-5.9-7.4-5.9-13.4a14.891,14.891,0,0,1,.7-4.3H62a14.891,14.891,0,0,0-.7,4.3c0,6.3,2.5,12.5,7.7,13.4Z"/>
      <line id="XMLID_104_" class="cls-20" x1="1.9" transform="translate(65.5 322.2)"/>
      <path id="XMLID_103_" class="cls-20" d="M63.7,322.2H60.4a14.891,14.891,0,0,0-.7,4.3c0,6.3,4.1,12.5,9.3,13.4v8.4h2.4v-8.4c5.2-.9,9.3-7.1,9.3-13.4a14.891,14.891,0,0,0-.7-4.3H68.6"/>
      <line id="XMLID_92_" class="cls-20" x2="5" transform="translate(67.8 342.5)"/>
      <line id="XMLID_91_" class="cls-20" x2="5" transform="translate(67.8 344.3)"/>
      <path id="XMLID_90_" class="cls-21" d="M76.3,352.8H64v-4a1.538,1.538,0,0,1,1.5-1.5h9.3a1.538,1.538,0,0,1,1.5,1.5Z"/>
      <path id="XMLID_89_" class="cls-20" d="M76.3,352.8H64v-4a1.538,1.538,0,0,1,1.5-1.5h9.3a1.538,1.538,0,0,1,1.5,1.5Z"/>
      <rect id="XMLID_88_" class="cls-13" width="6.6" height="2.6" transform="translate(66.9 348.3)"/>
      <line id="XMLID_87_" class="cls-20" x2="3.1" transform="translate(68.6 349.6)"/>
      <line id="XMLID_86_" class="cls-20" x2="16.7" transform="translate(61.7 352.8)"/>
    </g>
    <g id="XMLID_49_">
      <path id="XMLID_84_" class="cls-11" d="M84.3,237.4v13.2a1.58,1.58,0,0,1-1.6,1.6h-.5v8.1c0,.3-.4.4-.5.2l-6.9-8.3H55.6a1.58,1.58,0,0,1-1.6-1.6V237.4a1.58,1.58,0,0,1,1.6-1.6H82.7A1.58,1.58,0,0,1,84.3,237.4Z"/>
      <path id="XMLID_67_" class="cls-20" d="M69.2,235.8H82.8a1.58,1.58,0,0,1,1.6,1.6v13.2a1.58,1.58,0,0,1-1.6,1.6h-.5v8.1c0,.3-.4.4-.5.2l-6.9-8.3H55.6a1.58,1.58,0,0,1-1.6-1.6V237.4a1.58,1.58,0,0,1,1.6-1.6h1.9"/>
      <line id="XMLID_66_" class="cls-20" x2="5.6" transform="translate(60.1 235.8)"/>
      <path id="XMLID_64_" class="cls-21" d="M74.7,242.6a3.329,3.329,0,0,0-3.3-3.3,3.255,3.255,0,0,0-2.3,1,3.255,3.255,0,0,0-2.3-1,3.329,3.329,0,0,0-3.3,3.3,3.168,3.168,0,0,0,.9,2.3l4.7,4.6,4.8-4.7.2-.2A3.606,3.606,0,0,0,74.7,242.6Z"/>
      <path id="XMLID_60_" class="cls-20" d="M74.7,242.6a3.329,3.329,0,0,0-3.3-3.3,3.255,3.255,0,0,0-2.3,1,3.255,3.255,0,0,0-2.3-1,3.329,3.329,0,0,0-3.3,3.3,3.168,3.168,0,0,0,.9,2.3l4.7,4.6,4.8-4.7.2-.2A3.606,3.606,0,0,0,74.7,242.6Z"/>
    </g>
    <g id="XMLID_29_">
      <path id="XMLID_48_" class="cls-13" d="M80.3,82.8V58.4A1.324,1.324,0,0,0,79,57.1H59.3A1.324,1.324,0,0,0,58,58.4V82.8Z"/>
      <path id="XMLID_47_" class="cls-21" d="M58,60.5V58.2a1.11,1.11,0,0,1,1.1-1.1H79.2a1.11,1.11,0,0,1,1.1,1.1v2.3Z"/>
      <path id="XMLID_46_" class="cls-20" d="M58,83V58.2a1.11,1.11,0,0,1,1.1-1.1H62"/>
      <path id="XMLID_45_" class="cls-20" d="M66,57H79.3a1.11,1.11,0,0,1,1.1,1.1V83"/>
      <line id="XMLID_44_" class="cls-20" x2="1.5" transform="translate(63.2 57)"/>
      <line id="XMLID_43_" class="cls-20" x2="22.3" transform="translate(58 60.6)"/>
      <line id="XMLID_42_" class="cls-20" x2="0.9" transform="translate(60.6 59)"/>
      <line id="XMLID_41_" class="cls-20" x2="0.9" transform="translate(62.6 59)"/>
      <line id="XMLID_40_" class="cls-20" x2="0.9" transform="translate(64.7 59)"/>
      <rect id="XMLID_39_" class="cls-11" width="16.4" height="6.5" transform="translate(61 63.1)"/>
      <rect id="XMLID_38_" class="cls-11" width="5" height="6.5" transform="translate(61 73.7)"/>
      <rect id="XMLID_37_" class="cls-22" width="5" height="6.5" transform="translate(66.7 73.7)"/>
      <rect id="XMLID_36_" class="cls-11" width="5" height="6.5" transform="translate(72.4 73.7)"/>
      <line id="XMLID_35_" class="cls-20" x2="6.9" transform="translate(65.7 71.6)"/>
      <path id="XMLID_33_" class="cls-21" d="M80.2,85.7V85A1.216,1.216,0,0,0,79,83.8H77.2a8.486,8.486,0,0,0-1.1-2.6l1.3-1.3a1.04,1.04,0,0,0,0-1.6l-1-1a1.04,1.04,0,0,0-1.6,0l-1.3,1.3a8.486,8.486,0,0,0-2.6-1.1V75.7a1.216,1.216,0,0,0-1.2-1.2H68.4a1.216,1.216,0,0,0-1.2,1.2v1.8a8.486,8.486,0,0,0-2.6,1.1l-1.3-1.3a1.04,1.04,0,0,0-1.6,0l-1,.9a1.04,1.04,0,0,0,0,1.6L62,81.1a8.486,8.486,0,0,0-1.1,2.6H59.1a1.216,1.216,0,0,0-1.2,1.2v.7h7.4a3.7,3.7,0,0,1,7.4,0h7.5Z"/>
      <path id="XMLID_30_" class="cls-20" d="M80.2,85.7V85A1.216,1.216,0,0,0,79,83.8H77.2a8.486,8.486,0,0,0-1.1-2.6l1.3-1.3a1.04,1.04,0,0,0,0-1.6l-1-1a1.04,1.04,0,0,0-1.6,0l-1.3,1.3a8.486,8.486,0,0,0-2.6-1.1V75.7a1.216,1.216,0,0,0-1.2-1.2H68.4a1.216,1.216,0,0,0-1.2,1.2v1.8a8.486,8.486,0,0,0-2.6,1.1l-1.3-1.3a1.04,1.04,0,0,0-1.6,0l-1,.9a1.04,1.04,0,0,0,0,1.6L62,81.1a8.486,8.486,0,0,0-1.1,2.6H59.1a1.216,1.216,0,0,0-1.2,1.2v.7m7.6.1a3.7,3.7,0,0,1,7.4,0"/>
    </g>
    <g id="XMLID_1_">
      <path id="XMLID_14_" class="cls-21" d="M79.6,179.1l.9-5.3a1.668,1.668,0,0,0-1.7-2H61a1.709,1.709,0,0,0-1.7,2l.9,5.3Z"/>
      <path id="XMLID_13_" class="cls-20" d="M60.3,179.1l-.9-5.4a1.61,1.61,0,0,1,1.6-1.9H79a1.61,1.61,0,0,1,1.6,1.9l-.9,5.4"/>
      <line id="XMLID_12_" class="cls-20" y2="15" transform="translate(69.9 157.3)"/>
      <circle id="XMLID_11_" class="cls-11" cx="8.7" cy="8.7" r="8.7" transform="matrix(0.973, -0.231, 0.231, 0.973, 59.521, 142.928)"/>
      <path id="XMLID_10_" class="cls-20" d="M77.3,144.8a8.828,8.828,0,0,1,1.3,4.6,8.7,8.7,0,1,1-8.7-8.7,8.423,8.423,0,0,1,2.7.4"/>
      <path id="XMLID_9_" class="cls-20" d="M74.2,141.8a6.57,6.57,0,0,1,1.7,1.2"/>
      <g id="XMLID_6_">
        <path id="XMLID_8_" class="cls-20" d="M73.4,146.1H69.1a1.58,1.58,0,0,0-1.6,1.6h0a1.58,1.58,0,0,0,1.6,1.6h1.8a1.58,1.58,0,0,1,1.6,1.6h0a1.58,1.58,0,0,1-1.6,1.6H66.5"/>
        <line id="XMLID_7_" class="cls-20" y2="12" transform="translate(70 143.4)"/>
      </g>
      <path id="XMLID_5_" class="cls-13" d="M80.2,159.2s.3,4.4-2.2,6.9-6.9,2.2-6.9,2.2-.3-4.4,2.2-6.9S80.2,159.2,80.2,159.2Z"/>
      <path id="XMLID_4_" class="cls-20" d="M80.2,159.2s.3,4.4-2.2,6.9-6.9,2.2-6.9,2.2-.3-4.4,2.2-6.9S80.2,159.2,80.2,159.2Z"/>
      <path id="XMLID_3_" class="cls-13" d="M69.1,168.3s.3-4.4-2.2-6.9-6.9-2.2-6.9-2.2-.3,4.4,2.2,6.9S69.1,168.3,69.1,168.3Z"/>
      <path id="XMLID_2_" class="cls-20" d="M69.1,168.3s.3-4.4-2.2-6.9-6.9-2.2-6.9-2.2-.3,4.4,2.2,6.9S69.1,168.3,69.1,168.3Z"/>
    </g>
  </g>
  <g id="Group_631" data-name="Group 631" class="cls-5">
    <text id="FOCO_NO_SUCESSO_DO_SEU_EVENTO" data-name="FOCO NO
SUCESSO DO
SEU EVENTO" class="cls-6" transform="translate(182.468 147.164)"><tspan x="0" y="0">FOCO NO</tspan><tspan x="0" y="17.8">SUCESSO DO</tspan><tspan x="0" y="35.6">SEU EVENTO</tspan></text>
  </g>
</svg>
